EESchema Schematic File Version 4
LIBS:python-cache
EELAYER 26 0
EELAYER END
$Descr A4 11693 8268
encoding utf-8
Sheet 1 1
Title "CircuitPython Board"
Date "2018-12-17"
Rev "0"
Comp "GustavAtmel"
Comment1 ""
Comment2 ""
Comment3 ""
Comment4 ""
$EndDescr
$Comp
L myParts:ATSAMD21E18A-AU IC1
U 1 1 5C4DDF1C
P 8700 4250
F 0 "IC1" H 8625 5915 50  0000 C CNN
F 1 "ATSAMD21E18A-AU" H 8625 5824 50  0000 C CNN
F 2 "Package_QFP:TQFP-32_7x7mm_P0.8mm" H 9450 2500 50  0001 C CNN
F 3 "http://ww1.microchip.com/downloads/en/DeviceDoc/SAMD21-Family-DataSheet-DS40001882D.pdf" H 9450 2400 50  0001 C CNN
F 4 "Rs" H 8625 6187 50  0001 C CNN "Supplier"
F 5 "133-0940" H 8625 6096 50  0001 C CNN "Supplier Nr."
F 6 "Microchip" H 8700 4250 50  0001 C CNN "Manufacturer"
F 7 "ATSAMD21E18-AU" H 8625 5914 50  0001 C CNN "Manufacturer Nr."
F 8 "3.183" H 8625 5823 50  0001 C CNN "Price"
	1    8700 4250
	1    0    0    -1  
$EndComp
$Comp
L Regulator_Linear:AP2112K-3.3 U1
U 1 1 5C4DE4F3
P 4500 1450
F 0 "U1" H 4500 1792 50  0000 C CNN
F 1 "AP2112K-3.3" H 4500 1701 50  0000 C CNN
F 2 "Package_TO_SOT_SMD:SOT-23-5" H 4500 1775 50  0001 C CNN
F 3 "https://www.diodes.com/assets/Datasheets/AP2112.pdf" H 4500 1550 50  0001 C CNN
F 4 "RS" H 4500 1450 50  0001 C CNN "Supplier"
F 5 "828-3509" H 4500 1450 50  0001 C CNN "Supplier Nr."
F 6 "DiodesZetex" H 4500 1450 50  0001 C CNN "Manufacturer"
F 7 "AP2112K-3.3TRG1" H 4500 1450 50  0001 C CNN "Manufacturer Nr."
F 8 "0.12" H 4500 1450 50  0001 C CNN "Price"
	1    4500 1450
	1    0    0    -1  
$EndComp
$Comp
L Device:C C4
U 1 1 5C4DEF23
P 3750 1600
F 0 "C4" H 3865 1646 50  0000 L CNN
F 1 "10uF" H 3865 1555 50  0000 L CNN
F 2 "Capacitor_SMD:C_0805_2012Metric" H 3788 1450 50  0001 C CNN
F 3 "~" H 3750 1600 50  0001 C CNN
F 4 "RS" H 3750 1600 50  0001 C CNN "Supplier"
F 5 "885-1758" H 3750 1600 50  0001 C CNN "Supplier Nr."
F 6 "Murata " H 3750 1600 50  0001 C CNN "Manufacturer"
F 7 "GRM21BB31E106KA73L" H 3750 1600 50  0001 C CNN "Manufacturer Nr."
F 8 "0.047" H 3750 1600 50  0001 C CNN "Price"
	1    3750 1600
	1    0    0    -1  
$EndComp
$Comp
L Device:R R1
U 1 1 5C4DEFD1
P 5400 1350
F 0 "R1" V 5193 1350 50  0000 C CNN
F 1 "1k" V 5284 1350 50  0000 C CNN
F 2 "Resistor_SMD:R_0805_2012Metric" V 5330 1350 50  0001 C CNN
F 3 "~" H 5400 1350 50  0001 C CNN
F 4 "RS" H 5400 1350 50  0001 C CNN "Supplier"
F 5 "901-3682" H 5400 1350 50  0001 C CNN "Supplier Nr."
F 6 "ROHM" H 5400 1350 50  0001 C CNN "Manufacturer"
F 7 "MCR10EZPF1001" H 5400 1350 50  0001 C CNN "Manufacturer Nr."
F 8 "0.023" H 5400 1350 50  0001 C CNN "Price"
	1    5400 1350
	0    1    1    0   
$EndComp
$Comp
L Device:LED D1
U 1 1 5C4DF07F
P 5750 1600
F 0 "D1" V 5788 1483 50  0000 R CNN
F 1 "PWR" V 5697 1483 50  0000 R CNN
F 2 "LED_SMD:LED_0805_2012Metric" H 5750 1600 50  0001 C CNN
F 3 "~" H 5750 1600 50  0001 C CNN
F 4 "RS" H 5750 1600 50  0001 C CNN "Supplier"
F 5 "861-0037" H 5750 1600 50  0001 C CNN "Supplier Nr."
F 6 "Kingbright " H 5750 1600 50  0001 C CNN "Manufacturer"
F 7 "KP-2012CGCK" H 5750 1600 50  0001 C CNN "Manufacturer Nr."
F 8 "0.070" H 5750 1600 50  0001 C CNN "Price"
	1    5750 1600
	0    -1   -1   0   
$EndComp
$Comp
L power:GND #PWR0101
U 1 1 5C4DF751
P 4500 1900
F 0 "#PWR0101" H 4500 1650 50  0001 C CNN
F 1 "GND" H 4505 1727 50  0000 C CNN
F 2 "" H 4500 1900 50  0001 C CNN
F 3 "" H 4500 1900 50  0001 C CNN
	1    4500 1900
	1    0    0    -1  
$EndComp
Wire Wire Line
	3750 1450 3750 1350
Wire Wire Line
	3750 1350 4050 1350
Wire Wire Line
	4200 1450 4050 1450
Wire Wire Line
	4050 1450 4050 1350
Connection ~ 4050 1350
Wire Wire Line
	4050 1350 4200 1350
Wire Wire Line
	4800 1350 4950 1350
Wire Wire Line
	4950 1350 4950 1450
Wire Wire Line
	5250 1350 4950 1350
Connection ~ 4950 1350
Wire Wire Line
	5550 1350 5750 1350
Wire Wire Line
	5750 1350 5750 1450
$Comp
L power:GND #PWR0102
U 1 1 5C4DFD24
P 3750 1900
F 0 "#PWR0102" H 3750 1650 50  0001 C CNN
F 1 "GND" H 3755 1727 50  0000 C CNN
F 2 "" H 3750 1900 50  0001 C CNN
F 3 "" H 3750 1900 50  0001 C CNN
	1    3750 1900
	1    0    0    -1  
$EndComp
$Comp
L power:GND #PWR0103
U 1 1 5C4DFD3D
P 4950 1900
F 0 "#PWR0103" H 4950 1650 50  0001 C CNN
F 1 "GND" H 4955 1727 50  0000 C CNN
F 2 "" H 4950 1900 50  0001 C CNN
F 3 "" H 4950 1900 50  0001 C CNN
	1    4950 1900
	1    0    0    -1  
$EndComp
$Comp
L power:GND #PWR0104
U 1 1 5C4DFD56
P 5750 1900
F 0 "#PWR0104" H 5750 1650 50  0001 C CNN
F 1 "GND" H 5755 1727 50  0000 C CNN
F 2 "" H 5750 1900 50  0001 C CNN
F 3 "" H 5750 1900 50  0001 C CNN
	1    5750 1900
	1    0    0    -1  
$EndComp
Wire Wire Line
	3750 1900 3750 1750
Wire Wire Line
	4500 1900 4500 1750
Wire Wire Line
	4950 1750 4950 1900
Wire Wire Line
	5750 1750 5750 1900
$Comp
L power:VBUS #PWR0105
U 1 1 5C4E03EB
P 3550 1200
F 0 "#PWR0105" H 3550 1050 50  0001 C CNN
F 1 "VBUS" H 3565 1373 50  0000 C CNN
F 2 "" H 3550 1200 50  0001 C CNN
F 3 "" H 3550 1200 50  0001 C CNN
	1    3550 1200
	1    0    0    -1  
$EndComp
Wire Wire Line
	3550 1200 3550 1350
Wire Wire Line
	3550 1350 3750 1350
Connection ~ 3750 1350
$Comp
L power:+3.3V #PWR0106
U 1 1 5C4E06A0
P 4950 1200
F 0 "#PWR0106" H 4950 1050 50  0001 C CNN
F 1 "+3.3V" H 4965 1373 50  0000 C CNN
F 2 "" H 4950 1200 50  0001 C CNN
F 3 "" H 4950 1200 50  0001 C CNN
	1    4950 1200
	1    0    0    -1  
$EndComp
Wire Wire Line
	4950 1200 4950 1350
$Comp
L Device:C C6
U 1 1 5C4E0EA7
P 4950 1600
F 0 "C6" H 5065 1646 50  0000 L CNN
F 1 "10uF" H 5065 1555 50  0000 L CNN
F 2 "Capacitor_SMD:C_0805_2012Metric" H 4988 1450 50  0001 C CNN
F 3 "~" H 4950 1600 50  0001 C CNN
F 4 "RS" H 4950 1600 50  0001 C CNN "Supplier"
F 5 "885-1758" H 4950 1600 50  0001 C CNN "Supplier Nr."
F 6 "Murata " H 4950 1600 50  0001 C CNN "Manufacturer"
F 7 "GRM21BB31E106KA73L" H 4950 1600 50  0001 C CNN "Manufacturer Nr."
F 8 "0.047" H 4950 1600 50  0001 C CNN "Price"
	1    4950 1600
	1    0    0    -1  
$EndComp
$Comp
L myParts:AP102-2020 LED1
U 1 1 5C543277
P 1400 6150
F 0 "LED1" H 1050 6600 50  0000 C CNN
F 1 "AP102-2020" H 1200 6500 50  0000 C CNN
F 2 "myParts:APA102-2020" H 1100 6400 50  0001 C CNN
F 3 "https://www.aliexpress.com/item/10-1000Pcs-APA102-LED-Chips-APA102-2020-SMD-RGB-Smart-LEDs-APA102C-2020-Chips-DC5V/32851577658.html?spm=a2g0s.12269583.0.0.6df135a78Ukng1" H 1400 5350 50  0001 C CNN
F 4 "AliExpress" H 1100 5450 50  0001 C CNN "Supplier"
F 5 "APA102 2020" H 1000 5500 50  0001 C CNN "Supplier Nr."
F 6 "WESIRI" H 1000 6850 50  0001 C CNN "Manufacturer"
F 7 "APA102 2020" H 1600 6900 50  0001 C CNN "Manufacturer Nr."
F 8 "0.413" H 1700 7000 50  0001 C CNN "Price"
	1    1400 6150
	1    0    0    -1  
$EndComp
$Comp
L myParts:AP102-2020 LED2
U 1 1 5C54334B
P 2400 6150
F 0 "LED2" H 2050 6600 50  0000 C CNN
F 1 "AP102-2020" H 2200 6500 50  0000 C CNN
F 2 "myParts:APA102-2020" H 2100 6400 50  0001 C CNN
F 3 "https://www.aliexpress.com/item/10-1000Pcs-APA102-LED-Chips-APA102-2020-SMD-RGB-Smart-LEDs-APA102C-2020-Chips-DC5V/32851577658.html?spm=a2g0s.12269583.0.0.6df135a78Ukng1" H 2400 5350 50  0001 C CNN
F 4 "AliExpress" H 2100 5450 50  0001 C CNN "Supplier"
F 5 "APA102 2020" H 2000 5500 50  0001 C CNN "Supplier Nr."
F 6 "WESIRI" H 2000 6850 50  0001 C CNN "Manufacturer"
F 7 "APA102 2020" H 2600 6900 50  0001 C CNN "Manufacturer Nr."
F 8 "0.413" H 2700 7000 50  0001 C CNN "Price"
	1    2400 6150
	1    0    0    -1  
$EndComp
$Comp
L myParts:AP102-2020 LED3
U 1 1 5C5433A5
P 3350 6150
F 0 "LED3" H 3000 6600 50  0000 C CNN
F 1 "AP102-2020" H 3150 6500 50  0000 C CNN
F 2 "myParts:APA102-2020" H 3050 6400 50  0001 C CNN
F 3 "https://www.aliexpress.com/item/10-1000Pcs-APA102-LED-Chips-APA102-2020-SMD-RGB-Smart-LEDs-APA102C-2020-Chips-DC5V/32851577658.html?spm=a2g0s.12269583.0.0.6df135a78Ukng1" H 3350 5350 50  0001 C CNN
F 4 "AliExpress" H 3050 5450 50  0001 C CNN "Supplier"
F 5 "APA102 2020" H 2950 5500 50  0001 C CNN "Supplier Nr."
F 6 "WESIRI" H 2950 6850 50  0001 C CNN "Manufacturer"
F 7 "APA102 2020" H 3550 6900 50  0001 C CNN "Manufacturer Nr."
F 8 "0.413" H 3650 7000 50  0001 C CNN "Price"
	1    3350 6150
	1    0    0    -1  
$EndComp
$Comp
L myParts:AP102-2020 LED4
U 1 1 5C54344D
P 4300 6150
F 0 "LED4" H 3950 6600 50  0000 C CNN
F 1 "AP102-2020" H 4100 6500 50  0000 C CNN
F 2 "myParts:APA102-2020" H 4000 6400 50  0001 C CNN
F 3 "https://www.aliexpress.com/item/10-1000Pcs-APA102-LED-Chips-APA102-2020-SMD-RGB-Smart-LEDs-APA102C-2020-Chips-DC5V/32851577658.html?spm=a2g0s.12269583.0.0.6df135a78Ukng1" H 4300 5350 50  0001 C CNN
F 4 "AliExpress" H 4000 5450 50  0001 C CNN "Supplier"
F 5 "APA102 2020" H 3900 5500 50  0001 C CNN "Supplier Nr."
F 6 "WESIRI" H 3900 6850 50  0001 C CNN "Manufacturer"
F 7 "APA102 2020" H 4500 6900 50  0001 C CNN "Manufacturer Nr."
F 8 "0.413" H 4600 7000 50  0001 C CNN "Price"
	1    4300 6150
	1    0    0    -1  
$EndComp
$Comp
L myParts:AP102-2020 LED5
U 1 1 5C5434AD
P 5200 6150
F 0 "LED5" H 4850 6600 50  0000 C CNN
F 1 "AP102-2020" H 5000 6500 50  0000 C CNN
F 2 "myParts:APA102-2020" H 4900 6400 50  0001 C CNN
F 3 "https://www.aliexpress.com/item/10-1000Pcs-APA102-LED-Chips-APA102-2020-SMD-RGB-Smart-LEDs-APA102C-2020-Chips-DC5V/32851577658.html?spm=a2g0s.12269583.0.0.6df135a78Ukng1" H 5200 5350 50  0001 C CNN
F 4 "AliExpress" H 4900 5450 50  0001 C CNN "Supplier"
F 5 "APA102 2020" H 4800 5500 50  0001 C CNN "Supplier Nr."
F 6 "WESIRI" H 4800 6850 50  0001 C CNN "Manufacturer"
F 7 "APA102 2020" H 5400 6900 50  0001 C CNN "Manufacturer Nr."
F 8 "0.413" H 5500 7000 50  0001 C CNN "Price"
	1    5200 6150
	1    0    0    -1  
$EndComp
$Comp
L myParts:AP102-2020 LED6
U 1 1 5C543501
P 6100 6150
F 0 "LED6" H 5750 6600 50  0000 C CNN
F 1 "AP102-2020" H 5900 6500 50  0000 C CNN
F 2 "myParts:APA102-2020" H 5800 6400 50  0001 C CNN
F 3 "https://www.aliexpress.com/item/10-1000Pcs-APA102-LED-Chips-APA102-2020-SMD-RGB-Smart-LEDs-APA102C-2020-Chips-DC5V/32851577658.html?spm=a2g0s.12269583.0.0.6df135a78Ukng1" H 6100 5350 50  0001 C CNN
F 4 "AliExpress" H 5800 5450 50  0001 C CNN "Supplier"
F 5 "APA102 2020" H 5700 5500 50  0001 C CNN "Supplier Nr."
F 6 "WESIRI" H 5700 6850 50  0001 C CNN "Manufacturer"
F 7 "APA102 2020" H 6300 6900 50  0001 C CNN "Manufacturer Nr."
F 8 "0.413" H 6400 7000 50  0001 C CNN "Price"
	1    6100 6150
	1    0    0    -1  
$EndComp
Wire Wire Line
	1800 6200 2000 6200
Wire Wire Line
	2000 6300 1800 6300
Wire Wire Line
	2800 6200 2950 6200
Wire Wire Line
	2800 6300 2950 6300
Wire Wire Line
	3750 6200 3900 6200
Wire Wire Line
	3750 6300 3900 6300
Wire Wire Line
	4700 6200 4800 6200
Wire Wire Line
	4700 6300 4800 6300
Wire Wire Line
	5600 6200 5700 6200
Wire Wire Line
	5600 6300 5700 6300
$Comp
L Device:C C1
U 1 1 5C66BEA0
P 1300 5200
F 0 "C1" H 1415 5246 50  0000 L CNN
F 1 "100nF" H 1415 5155 50  0000 L CNN
F 2 "Capacitor_SMD:C_0805_2012Metric" H 1338 5050 50  0001 C CNN
F 3 "~" H 1300 5200 50  0001 C CNN
F 4 "RS" H 1300 5200 50  0001 C CNN "Supplier"
F 5 "378-665" H 1300 5200 50  0001 C CNN "Supplier Nr."
F 6 "EPCOS" H 1300 5200 50  0001 C CNN "Manufacturer"
F 7 "08052R104K8BB" H 1300 5200 50  0001 C CNN "Manufacturer Nr."
F 8 "0.047" H 1300 5200 50  0001 C CNN "Price"
	1    1300 5200
	1    0    0    -1  
$EndComp
$Comp
L power:GND #PWR0107
U 1 1 5C66C721
P 6100 6700
F 0 "#PWR0107" H 6100 6450 50  0001 C CNN
F 1 "GND" H 6105 6527 50  0000 C CNN
F 2 "" H 6100 6700 50  0001 C CNN
F 3 "" H 6100 6700 50  0001 C CNN
	1    6100 6700
	1    0    0    -1  
$EndComp
Wire Wire Line
	1400 6550 1400 6700
Wire Wire Line
	6100 6700 6100 6550
Wire Wire Line
	3350 6550 3350 6700
Wire Wire Line
	2400 6550 2400 6700
Wire Wire Line
	4300 6550 4300 6700
Wire Wire Line
	5200 6550 5200 6700
$Comp
L power:+3.3V #PWR0108
U 1 1 5C66F21B
P 1600 5600
F 0 "#PWR0108" H 1600 5450 50  0001 C CNN
F 1 "+3.3V" H 1615 5773 50  0000 C CNN
F 2 "" H 1600 5600 50  0001 C CNN
F 3 "" H 1600 5600 50  0001 C CNN
	1    1600 5600
	1    0    0    -1  
$EndComp
$Comp
L power:+3.3V #PWR0109
U 1 1 5C66F2C0
P 2600 5600
F 0 "#PWR0109" H 2600 5450 50  0001 C CNN
F 1 "+3.3V" H 2615 5773 50  0000 C CNN
F 2 "" H 2600 5600 50  0001 C CNN
F 3 "" H 2600 5600 50  0001 C CNN
	1    2600 5600
	1    0    0    -1  
$EndComp
$Comp
L power:+3.3V #PWR0110
U 1 1 5C66F2E7
P 3550 5600
F 0 "#PWR0110" H 3550 5450 50  0001 C CNN
F 1 "+3.3V" H 3565 5773 50  0000 C CNN
F 2 "" H 3550 5600 50  0001 C CNN
F 3 "" H 3550 5600 50  0001 C CNN
	1    3550 5600
	1    0    0    -1  
$EndComp
$Comp
L power:+3.3V #PWR0111
U 1 1 5C66F30E
P 4500 5600
F 0 "#PWR0111" H 4500 5450 50  0001 C CNN
F 1 "+3.3V" H 4515 5773 50  0000 C CNN
F 2 "" H 4500 5600 50  0001 C CNN
F 3 "" H 4500 5600 50  0001 C CNN
	1    4500 5600
	1    0    0    -1  
$EndComp
$Comp
L power:+3.3V #PWR0112
U 1 1 5C66F335
P 5400 5600
F 0 "#PWR0112" H 5400 5450 50  0001 C CNN
F 1 "+3.3V" H 5415 5773 50  0000 C CNN
F 2 "" H 5400 5600 50  0001 C CNN
F 3 "" H 5400 5600 50  0001 C CNN
	1    5400 5600
	1    0    0    -1  
$EndComp
$Comp
L power:+3.3V #PWR0113
U 1 1 5C66F35C
P 6300 5600
F 0 "#PWR0113" H 6300 5450 50  0001 C CNN
F 1 "+3.3V" H 6315 5773 50  0000 C CNN
F 2 "" H 6300 5600 50  0001 C CNN
F 3 "" H 6300 5600 50  0001 C CNN
	1    6300 5600
	1    0    0    -1  
$EndComp
Wire Wire Line
	1600 5600 1600 5750
Wire Wire Line
	2600 5600 2600 5750
Wire Wire Line
	3550 5600 3550 5750
Wire Wire Line
	4500 5600 4500 5750
Wire Wire Line
	5400 5600 5400 5750
Wire Wire Line
	6300 5600 6300 5750
$Comp
L myParts:SW_Push SW1
U 1 1 5C674CEE
P 1300 4300
F 0 "SW1" H 1300 4928 50  0000 C CNN
F 1 "SW_Push" H 1300 4837 50  0000 C CNN
F 2 "myParts:SKRBAAE010" H 1050 4100 50  0001 C CNN
F 3 "https://docs-emea.rs-online.com/webdocs/14b0/0900766b814b0fb3.pdf" H 1600 3850 50  0001 C CNN
F 4 "RS" H 700 4000 50  0001 C CNN "Supplier"
F 5 "917-3983" H 1000 4000 50  0001 C CNN "Supplier Nr."
F 6 " Alps Electric " H 850 3900 50  0001 C CNN "Manufacturer"
F 7 "SKRBAAE010" H 1400 3900 50  0001 C CNN "Manufacturer Nr."
F 8 "0.375" H 1350 4000 50  0001 C CNN "Price"
	1    1300 4300
	1    0    0    -1  
$EndComp
$Comp
L power:GND #PWR0114
U 1 1 5C676579
P 1400 6700
F 0 "#PWR0114" H 1400 6450 50  0001 C CNN
F 1 "GND" H 1405 6527 50  0000 C CNN
F 2 "" H 1400 6700 50  0001 C CNN
F 3 "" H 1400 6700 50  0001 C CNN
	1    1400 6700
	1    0    0    -1  
$EndComp
$Comp
L power:GND #PWR0115
U 1 1 5C6765A2
P 2400 6700
F 0 "#PWR0115" H 2400 6450 50  0001 C CNN
F 1 "GND" H 2405 6527 50  0000 C CNN
F 2 "" H 2400 6700 50  0001 C CNN
F 3 "" H 2400 6700 50  0001 C CNN
	1    2400 6700
	1    0    0    -1  
$EndComp
$Comp
L power:GND #PWR0116
U 1 1 5C6765CB
P 3350 6700
F 0 "#PWR0116" H 3350 6450 50  0001 C CNN
F 1 "GND" H 3355 6527 50  0000 C CNN
F 2 "" H 3350 6700 50  0001 C CNN
F 3 "" H 3350 6700 50  0001 C CNN
	1    3350 6700
	1    0    0    -1  
$EndComp
$Comp
L power:GND #PWR0117
U 1 1 5C6765F4
P 4300 6700
F 0 "#PWR0117" H 4300 6450 50  0001 C CNN
F 1 "GND" H 4305 6527 50  0000 C CNN
F 2 "" H 4300 6700 50  0001 C CNN
F 3 "" H 4300 6700 50  0001 C CNN
	1    4300 6700
	1    0    0    -1  
$EndComp
$Comp
L power:GND #PWR0118
U 1 1 5C67661D
P 5200 6700
F 0 "#PWR0118" H 5200 6450 50  0001 C CNN
F 1 "GND" H 5205 6527 50  0000 C CNN
F 2 "" H 5200 6700 50  0001 C CNN
F 3 "" H 5200 6700 50  0001 C CNN
	1    5200 6700
	1    0    0    -1  
$EndComp
Text Label 10300 5100 0    50   ~ 0
D-
Text Label 10300 5200 0    50   ~ 0
D+
Text Label 10300 5600 0    50   ~ 0
SWCLK
Text Label 10300 5700 0    50   ~ 0
SWDIO
Text Label 10300 3750 0    50   ~ 0
I2C_SDA
Text Label 10300 3850 0    50   ~ 0
I2C_SCL
Text Label 10300 3600 0    50   ~ 0
SPI_MOSI
Text Label 10300 3300 0    50   ~ 0
SPI_MISO
Text Label 10300 3400 0    50   ~ 0
SPI_SCK
Text Label 8150 750  0    50   ~ 0
UART_RX
Text Label 8150 650  0    50   ~ 0
UART_TX
Wire Wire Line
	10300 5100 9950 5100
Wire Wire Line
	9950 5200 10300 5200
Wire Wire Line
	9950 5600 10300 5600
Wire Wire Line
	9950 5700 10300 5700
Text Label 10300 2850 0    50   ~ 0
LED_D
Text Label 10300 2950 0    50   ~ 0
LED_C
Text Label 650  6200 0    50   ~ 0
LED_D
Text Label 650  6300 0    50   ~ 0
LED_C
Wire Wire Line
	650  6200 1000 6200
Wire Wire Line
	650  6300 1000 6300
Wire Wire Line
	10300 2850 9950 2850
Wire Wire Line
	9950 2950 10300 2950
Wire Wire Line
	10300 4200 9950 4200
Wire Wire Line
	9950 4300 10300 4300
Wire Wire Line
	10300 3300 9950 3300
Wire Wire Line
	9950 3400 10300 3400
Wire Wire Line
	10300 3600 9950 3600
Text Label 10300 3500 0    50   ~ 0
SPI_!SS
Wire Wire Line
	10300 3500 9950 3500
Wire Wire Line
	10300 3750 9950 3750
Wire Wire Line
	9950 3850 10300 3850
$Comp
L myParts:SW_Push SW7
U 1 1 5C709140
P 6600 2950
F 0 "SW7" H 6600 3578 50  0000 C CNN
F 1 "SW_Push" H 6600 3487 50  0000 C CNN
F 2 "myParts:SKRBAAE010" H 6350 2750 50  0001 C CNN
F 3 "https://docs-emea.rs-online.com/webdocs/14b0/0900766b814b0fb3.pdf" H 6900 2500 50  0001 C CNN
F 4 "RS" H 6000 2650 50  0001 C CNN "Supplier"
F 5 "917-3983" H 6300 2650 50  0001 C CNN "Supplier Nr."
F 6 " Alps Electric " H 6150 2550 50  0001 C CNN "Manufacturer"
F 7 "SKRBAAE010" H 6700 2550 50  0001 C CNN "Manufacturer Nr."
F 8 "0.375" H 6650 2650 50  0001 C CNN "Price"
	1    6600 2950
	0    -1   1    0   
$EndComp
Wire Wire Line
	6550 2750 6750 2750
Wire Wire Line
	6750 3150 6550 3150
Wire Wire Line
	6150 2750 5750 2750
Wire Wire Line
	5750 2750 5750 3150
Wire Wire Line
	5750 3150 6150 3150
Wire Wire Line
	5750 3250 5750 3150
Connection ~ 5750 3150
$Comp
L power:GND #PWR0119
U 1 1 5C70FB43
P 5750 3250
F 0 "#PWR0119" H 5750 3000 50  0001 C CNN
F 1 "GND" H 5755 3077 50  0000 C CNN
F 2 "" H 5750 3250 50  0001 C CNN
F 3 "" H 5750 3250 50  0001 C CNN
	1    5750 3250
	1    0    0    -1  
$EndComp
$Comp
L power:+3.3V #PWR0120
U 1 1 5C70FB7E
P 7100 3200
F 0 "#PWR0120" H 7100 3050 50  0001 C CNN
F 1 "+3.3V" H 7115 3373 50  0000 C CNN
F 2 "" H 7100 3200 50  0001 C CNN
F 3 "" H 7100 3200 50  0001 C CNN
	1    7100 3200
	1    0    0    -1  
$EndComp
Wire Wire Line
	7100 3200 7300 3200
Wire Wire Line
	7300 3400 7100 3400
Wire Wire Line
	7100 3400 7100 3200
Connection ~ 7100 3200
Wire Wire Line
	7100 3500 7100 3600
Wire Wire Line
	7100 3500 7300 3500
$Comp
L power:GND #PWR0121
U 1 1 5C71AFBD
P 7100 5750
F 0 "#PWR0121" H 7100 5500 50  0001 C CNN
F 1 "GND" H 7105 5577 50  0000 C CNN
F 2 "" H 7100 5750 50  0001 C CNN
F 3 "" H 7100 5750 50  0001 C CNN
	1    7100 5750
	1    0    0    -1  
$EndComp
Wire Wire Line
	7300 5450 7100 5450
Wire Wire Line
	7100 5450 7100 5550
Wire Wire Line
	7100 5550 7300 5550
Connection ~ 7100 5550
Wire Wire Line
	7100 5550 7100 5750
$Comp
L myParts:SW_Push SW2
U 1 1 5C72A9B3
P 1900 4300
F 0 "SW2" H 1900 4928 50  0000 C CNN
F 1 "SW_Push" H 1900 4837 50  0000 C CNN
F 2 "myParts:SKRBAAE010" H 1650 4100 50  0001 C CNN
F 3 "https://docs-emea.rs-online.com/webdocs/14b0/0900766b814b0fb3.pdf" H 2200 3850 50  0001 C CNN
F 4 "RS" H 1300 4000 50  0001 C CNN "Supplier"
F 5 "917-3983" H 1600 4000 50  0001 C CNN "Supplier Nr."
F 6 " Alps Electric " H 1450 3900 50  0001 C CNN "Manufacturer"
F 7 "SKRBAAE010" H 2000 3900 50  0001 C CNN "Manufacturer Nr."
F 8 "0.375" H 1950 4000 50  0001 C CNN "Price"
	1    1900 4300
	1    0    0    -1  
$EndComp
$Comp
L myParts:SW_Push SW3
U 1 1 5C72AA55
P 2500 4300
F 0 "SW3" H 2500 4928 50  0000 C CNN
F 1 "SW_Push" H 2500 4837 50  0000 C CNN
F 2 "myParts:SKRBAAE010" H 2250 4100 50  0001 C CNN
F 3 "https://docs-emea.rs-online.com/webdocs/14b0/0900766b814b0fb3.pdf" H 2800 3850 50  0001 C CNN
F 4 "RS" H 1900 4000 50  0001 C CNN "Supplier"
F 5 "917-3983" H 2200 4000 50  0001 C CNN "Supplier Nr."
F 6 " Alps Electric " H 2050 3900 50  0001 C CNN "Manufacturer"
F 7 "SKRBAAE010" H 2600 3900 50  0001 C CNN "Manufacturer Nr."
F 8 "0.375" H 2550 4000 50  0001 C CNN "Price"
	1    2500 4300
	1    0    0    -1  
$EndComp
$Comp
L myParts:SW_Push SW4
U 1 1 5C72AAAF
P 3100 4300
F 0 "SW4" H 3100 4928 50  0000 C CNN
F 1 "SW_Push" H 3100 4837 50  0000 C CNN
F 2 "myParts:SKRBAAE010" H 2850 4100 50  0001 C CNN
F 3 "https://docs-emea.rs-online.com/webdocs/14b0/0900766b814b0fb3.pdf" H 3400 3850 50  0001 C CNN
F 4 "RS" H 2500 4000 50  0001 C CNN "Supplier"
F 5 "917-3983" H 2800 4000 50  0001 C CNN "Supplier Nr."
F 6 " Alps Electric " H 2650 3900 50  0001 C CNN "Manufacturer"
F 7 "SKRBAAE010" H 3200 3900 50  0001 C CNN "Manufacturer Nr."
F 8 "0.375" H 3150 4000 50  0001 C CNN "Price"
	1    3100 4300
	1    0    0    -1  
$EndComp
$Comp
L myParts:SW_Push SW5
U 1 1 5C72AB03
P 3700 4300
F 0 "SW5" H 3700 4928 50  0000 C CNN
F 1 "SW_Push" H 3700 4837 50  0000 C CNN
F 2 "myParts:SKRBAAE010" H 3450 4100 50  0001 C CNN
F 3 "https://docs-emea.rs-online.com/webdocs/14b0/0900766b814b0fb3.pdf" H 4000 3850 50  0001 C CNN
F 4 "RS" H 3100 4000 50  0001 C CNN "Supplier"
F 5 "917-3983" H 3400 4000 50  0001 C CNN "Supplier Nr."
F 6 " Alps Electric " H 3250 3900 50  0001 C CNN "Manufacturer"
F 7 "SKRBAAE010" H 3800 3900 50  0001 C CNN "Manufacturer Nr."
F 8 "0.375" H 3750 4000 50  0001 C CNN "Price"
	1    3700 4300
	1    0    0    -1  
$EndComp
$Comp
L myParts:SW_Push SW6
U 1 1 5C72AB65
P 4300 4300
F 0 "SW6" H 4300 4928 50  0000 C CNN
F 1 "SW_Push" H 4300 4837 50  0000 C CNN
F 2 "myParts:SKRBAAE010" H 4050 4100 50  0001 C CNN
F 3 "https://docs-emea.rs-online.com/webdocs/14b0/0900766b814b0fb3.pdf" H 4600 3850 50  0001 C CNN
F 4 "RS" H 3700 4000 50  0001 C CNN "Supplier"
F 5 "917-3983" H 4000 4000 50  0001 C CNN "Supplier Nr."
F 6 " Alps Electric " H 3850 3900 50  0001 C CNN "Manufacturer"
F 7 "SKRBAAE010" H 4400 3900 50  0001 C CNN "Manufacturer Nr."
F 8 "0.375" H 4350 4000 50  0001 C CNN "Price"
	1    4300 4300
	1    0    0    -1  
$EndComp
Text Label 1300 3550 1    50   ~ 0
SWITCH_0
Text Label 1900 3550 1    50   ~ 0
SWITCH_1
Text Label 2500 3550 1    50   ~ 0
SWITCH_2
Text Label 3100 3550 1    50   ~ 0
SWITCH_3
Text Label 3700 3550 1    50   ~ 0
SWITCH_4
Text Label 4300 3550 1    50   ~ 0
SWITCH_5
Wire Wire Line
	10300 5350 9950 5350
Wire Wire Line
	9950 5450 10300 5450
Wire Wire Line
	10300 5000 9950 5000
Wire Wire Line
	9950 4900 10300 4900
Wire Wire Line
	9950 4750 10300 4750
Wire Wire Line
	10300 4650 9950 4650
Text Label 10300 4650 0    50   ~ 0
SWITCH_0
Text Label 10300 4750 0    50   ~ 0
SWITCH_1
Text Label 10300 4900 0    50   ~ 0
SWITCH_2
Text Label 10300 5000 0    50   ~ 0
SWITCH_3
Text Label 10300 5350 0    50   ~ 0
SWITCH_4
Text Label 10300 5450 0    50   ~ 0
SWITCH_5
Wire Wire Line
	1300 3550 1300 3600
Wire Wire Line
	1300 3600 1100 3600
Wire Wire Line
	1100 3600 1100 3850
Wire Wire Line
	1500 3850 1500 3600
Wire Wire Line
	1500 3600 1300 3600
Connection ~ 1300 3600
Wire Wire Line
	1900 3550 1900 3600
Wire Wire Line
	1900 3600 1700 3600
Wire Wire Line
	1700 3600 1700 3850
Wire Wire Line
	2100 3850 2100 3600
Wire Wire Line
	2100 3600 1900 3600
Connection ~ 1900 3600
Wire Wire Line
	2500 3550 2500 3600
Wire Wire Line
	2500 3600 2300 3600
Wire Wire Line
	2300 3600 2300 3850
Wire Wire Line
	2700 3850 2700 3600
Wire Wire Line
	2700 3600 2500 3600
Connection ~ 2500 3600
Wire Wire Line
	2900 3850 2900 3600
Wire Wire Line
	2900 3600 3100 3600
Wire Wire Line
	3100 3600 3100 3550
Wire Wire Line
	3100 3600 3300 3600
Wire Wire Line
	3300 3600 3300 3850
Connection ~ 3100 3600
Wire Wire Line
	3500 3850 3500 3600
Wire Wire Line
	3500 3600 3700 3600
Wire Wire Line
	3700 3600 3700 3550
Wire Wire Line
	3700 3600 3900 3600
Wire Wire Line
	3900 3600 3900 3850
Connection ~ 3700 3600
Wire Wire Line
	4100 3850 4100 3600
Wire Wire Line
	4100 3600 4300 3600
Wire Wire Line
	4300 3600 4300 3550
Wire Wire Line
	4300 3600 4500 3600
Wire Wire Line
	4500 3600 4500 3850
Connection ~ 4300 3600
$Comp
L power:GND #PWR0122
U 1 1 5C761471
P 1300 4400
F 0 "#PWR0122" H 1300 4150 50  0001 C CNN
F 1 "GND" H 1305 4227 50  0000 C CNN
F 2 "" H 1300 4400 50  0001 C CNN
F 3 "" H 1300 4400 50  0001 C CNN
	1    1300 4400
	1    0    0    -1  
$EndComp
Wire Wire Line
	1100 4250 1100 4350
Wire Wire Line
	1100 4350 1300 4350
Wire Wire Line
	1300 4350 1300 4400
Wire Wire Line
	1300 4350 1500 4350
Wire Wire Line
	1500 4350 1500 4250
Connection ~ 1300 4350
$Comp
L power:GND #PWR0123
U 1 1 5C767F06
P 1900 4400
F 0 "#PWR0123" H 1900 4150 50  0001 C CNN
F 1 "GND" H 1905 4227 50  0000 C CNN
F 2 "" H 1900 4400 50  0001 C CNN
F 3 "" H 1900 4400 50  0001 C CNN
	1    1900 4400
	1    0    0    -1  
$EndComp
Wire Wire Line
	1700 4250 1700 4350
Wire Wire Line
	1700 4350 1900 4350
Wire Wire Line
	1900 4350 1900 4400
Wire Wire Line
	1900 4350 2100 4350
Wire Wire Line
	2100 4350 2100 4250
Connection ~ 1900 4350
$Comp
L power:GND #PWR0124
U 1 1 5C76BAE7
P 2500 4400
F 0 "#PWR0124" H 2500 4150 50  0001 C CNN
F 1 "GND" H 2505 4227 50  0000 C CNN
F 2 "" H 2500 4400 50  0001 C CNN
F 3 "" H 2500 4400 50  0001 C CNN
	1    2500 4400
	1    0    0    -1  
$EndComp
Wire Wire Line
	2300 4250 2300 4350
Wire Wire Line
	2300 4350 2500 4350
Wire Wire Line
	2500 4350 2500 4400
Wire Wire Line
	2500 4350 2700 4350
Wire Wire Line
	2700 4350 2700 4250
Connection ~ 2500 4350
$Comp
L power:GND #PWR0125
U 1 1 5C76FC4E
P 3100 4400
F 0 "#PWR0125" H 3100 4150 50  0001 C CNN
F 1 "GND" H 3105 4227 50  0000 C CNN
F 2 "" H 3100 4400 50  0001 C CNN
F 3 "" H 3100 4400 50  0001 C CNN
	1    3100 4400
	1    0    0    -1  
$EndComp
Wire Wire Line
	2900 4250 2900 4350
Wire Wire Line
	2900 4350 3100 4350
Wire Wire Line
	3100 4350 3100 4400
Wire Wire Line
	3100 4350 3300 4350
Wire Wire Line
	3300 4350 3300 4250
Connection ~ 3100 4350
$Comp
L power:GND #PWR0126
U 1 1 5C778F3A
P 3700 4400
F 0 "#PWR0126" H 3700 4150 50  0001 C CNN
F 1 "GND" H 3705 4227 50  0000 C CNN
F 2 "" H 3700 4400 50  0001 C CNN
F 3 "" H 3700 4400 50  0001 C CNN
	1    3700 4400
	1    0    0    -1  
$EndComp
Wire Wire Line
	3500 4250 3500 4350
Wire Wire Line
	3500 4350 3700 4350
Wire Wire Line
	3700 4350 3700 4400
Wire Wire Line
	3700 4350 3900 4350
Wire Wire Line
	3900 4350 3900 4250
Connection ~ 3700 4350
$Comp
L power:GND #PWR0127
U 1 1 5C77DB48
P 4300 4400
F 0 "#PWR0127" H 4300 4150 50  0001 C CNN
F 1 "GND" H 4305 4227 50  0000 C CNN
F 2 "" H 4300 4400 50  0001 C CNN
F 3 "" H 4300 4400 50  0001 C CNN
	1    4300 4400
	1    0    0    -1  
$EndComp
Wire Wire Line
	4100 4250 4100 4350
Wire Wire Line
	4100 4350 4300 4350
Wire Wire Line
	4300 4350 4300 4400
Wire Wire Line
	4300 4350 4500 4350
Wire Wire Line
	4500 4350 4500 4250
Connection ~ 4300 4350
$Comp
L Connector_Generic:Conn_01x02 J5
U 1 1 5C7831F1
P 8750 650
F 0 "J5" H 8830 642 50  0000 L CNN
F 1 "Conn_01x02" H 8830 551 50  0000 L CNN
F 2 "Connector_PinHeader_2.54mm:PinHeader_1x02_P2.54mm_Vertical" H 8750 650 50  0001 C CNN
F 3 "~" H 8750 650 50  0001 C CNN
F 4 "RS" H 8750 650 50  0001 C CNN "Supplier"
F 5 "674-2312" H 8750 650 50  0001 C CNN "Supplier Nr."
F 6 "ASSMANN WSW" H 8750 650 50  0001 C CNN "Manufacturer"
F 7 "AW140-EG-G36B" H 8750 650 50  0001 C CNN "Manufacturer Nr."
F 8 "0.515" H 8750 650 50  0001 C CNN "Price"
	1    8750 650 
	1    0    0    -1  
$EndComp
$Comp
L power:GND #PWR0128
U 1 1 5C7833F8
P 7200 1450
F 0 "#PWR0128" H 7200 1200 50  0001 C CNN
F 1 "GND" H 7205 1277 50  0000 C CNN
F 2 "" H 7200 1450 50  0001 C CNN
F 3 "" H 7200 1450 50  0001 C CNN
	1    7200 1450
	1    0    0    -1  
$EndComp
$Comp
L power:+3.3V #PWR0129
U 1 1 5C78342F
P 7200 950
F 0 "#PWR0129" H 7200 800 50  0001 C CNN
F 1 "+3.3V" H 7215 1123 50  0000 C CNN
F 2 "" H 7200 950 50  0001 C CNN
F 3 "" H 7200 950 50  0001 C CNN
	1    7200 950 
	1    0    0    -1  
$EndComp
Wire Wire Line
	7300 1050 7200 1050
Wire Wire Line
	7300 1350 7200 1350
Wire Wire Line
	7200 1350 7200 1450
Text Label 10300 4300 0    50   ~ 0
UART_RX
Text Label 10300 4200 0    50   ~ 0
UART_TX
Text Label 7950 2300 0    50   ~ 0
I2C_SDA
Text Label 7950 2400 0    50   ~ 0
I2C_SCL
Text Label 8150 1350 0    50   ~ 0
SWCLK
Text Label 8150 1450 0    50   ~ 0
SWDIO
Text Label 8150 900  0    50   ~ 0
SPI_MOSI
Text Label 8150 1000 0    50   ~ 0
SPI_MISO
Text Label 8150 1100 0    50   ~ 0
SPI_SCK
Text Label 8150 1200 0    50   ~ 0
SPI_!SS
Wire Wire Line
	8150 650  8550 650 
Wire Wire Line
	8550 750  8150 750 
Wire Wire Line
	8550 900  8150 900 
Wire Wire Line
	8150 1000 8550 1000
Wire Wire Line
	8550 1100 8150 1100
Wire Wire Line
	8150 1200 8550 1200
Wire Wire Line
	8550 1350 8150 1350
Wire Wire Line
	8150 1450 8550 1450
$Comp
L Connector_Generic:Conn_01x04 J3
U 1 1 5C80FA45
P 7500 1150
F 0 "J3" H 7580 1142 50  0000 L CNN
F 1 "Conn_01x04" H 7580 1051 50  0000 L CNN
F 2 "Connector_PinHeader_2.54mm:PinHeader_1x04_P2.54mm_Vertical" H 7500 1150 50  0001 C CNN
F 3 "~" H 7500 1150 50  0001 C CNN
F 4 "RS" H 7500 1150 50  0001 C CNN "Supplier"
F 5 "674-2312" H 7500 1150 50  0001 C CNN "Supplier Nr."
F 6 "ASSMANN WSW " H 7500 1150 50  0001 C CNN "Manufacturer"
F 7 "AW140-EG-G36B" H 7500 1150 50  0001 C CNN "Manufacturer Nr."
F 8 "0.515" H 7500 1150 50  0001 C CNN "Price"
	1    7500 1150
	1    0    0    -1  
$EndComp
Wire Wire Line
	7300 1150 7200 1150
Wire Wire Line
	7200 950  7200 1050
Connection ~ 7200 1050
Wire Wire Line
	7200 1050 7200 1150
Wire Wire Line
	7300 1250 7200 1250
Wire Wire Line
	7200 1250 7200 1350
Connection ~ 7200 1350
Text Label 10300 3050 0    50   ~ 0
D0_A0
Text Label 10300 3150 0    50   ~ 0
D1_A1
Text Label 10300 3950 0    50   ~ 0
D2_A2
Text Label 10300 4050 0    50   ~ 0
D3_A3
Text Label 10300 4450 0    50   ~ 0
D4
Text Label 10300 4550 0    50   ~ 0
D5
Wire Wire Line
	10300 4550 9950 4550
Wire Wire Line
	9950 4450 10300 4450
Wire Wire Line
	10300 4050 9950 4050
Wire Wire Line
	9950 3950 10300 3950
Wire Wire Line
	10300 3150 9950 3150
Wire Wire Line
	9950 3050 10300 3050
$Comp
L Connector_Generic:Conn_01x06 J9
U 1 1 5C857674
P 9950 1400
F 0 "J9" H 10030 1392 50  0000 L CNN
F 1 "Conn_01x06" H 10030 1301 50  0000 L CNN
F 2 "Connector_PinHeader_2.54mm:PinHeader_1x06_P2.54mm_Vertical" H 9950 1400 50  0001 C CNN
F 3 "~" H 9950 1400 50  0001 C CNN
F 4 "RS" H 9950 1400 50  0001 C CNN "Supplier"
F 5 "674-2312" H 9950 1400 50  0001 C CNN "Supplier Nr."
F 6 "ASSMANN WSW" H 9950 1400 50  0001 C CNN "Manufacturer"
F 7 "AW140-EG-G36B" H 9950 1400 50  0001 C CNN "Manufacturer Nr."
F 8 "0.515" H 9950 1400 50  0001 C CNN "Price"
	1    9950 1400
	1    0    0    -1  
$EndComp
Text Label 9400 1200 0    50   ~ 0
D0_A0
Text Label 9400 1300 0    50   ~ 0
D1_A1
Text Label 9400 1400 0    50   ~ 0
D2_A2
Text Label 9400 1500 0    50   ~ 0
D3_A3
Text Label 9400 1600 0    50   ~ 0
D4
Text Label 9400 1700 0    50   ~ 0
D5
Wire Wire Line
	9400 1200 9750 1200
Wire Wire Line
	9750 1300 9400 1300
Wire Wire Line
	9400 1400 9750 1400
Wire Wire Line
	9750 1500 9400 1500
Wire Wire Line
	9400 1600 9750 1600
Wire Wire Line
	9750 1700 9400 1700
$Comp
L Device:C C9
U 1 1 5C8BC85C
P 7100 3750
F 0 "C9" H 7215 3796 50  0000 L CNN
F 1 "1uF" H 7215 3705 50  0000 L CNN
F 2 "Capacitor_SMD:C_0805_2012Metric" H 7138 3600 50  0001 C CNN
F 3 "~" H 7100 3750 50  0001 C CNN
F 4 "RS" H 7100 3750 50  0001 C CNN "Supplier"
F 5 "798-4696" H 7100 3750 50  0001 C CNN "Supplier Nr."
F 6 "Murata" H 7100 3750 50  0001 C CNN "Manufacturer"
F 7 "GRM219B31E105KA88D" H 7100 3750 50  0001 C CNN "Manufacturer Nr."
F 8 "0.059" H 7100 3750 50  0001 C CNN "Price"
	1    7100 3750
	1    0    0    -1  
$EndComp
$Comp
L power:GND #PWR0130
U 1 1 5C8BCA19
P 7100 4000
F 0 "#PWR0130" H 7100 3750 50  0001 C CNN
F 1 "GND" H 7105 3827 50  0000 C CNN
F 2 "" H 7100 4000 50  0001 C CNN
F 3 "" H 7100 4000 50  0001 C CNN
	1    7100 4000
	1    0    0    -1  
$EndComp
Wire Wire Line
	7100 4000 7100 3900
$Comp
L power:+3.3V #PWR0131
U 1 1 5C8CBDC9
P 1300 5000
F 0 "#PWR0131" H 1300 4850 50  0001 C CNN
F 1 "+3.3V" H 1315 5173 50  0000 C CNN
F 2 "" H 1300 5000 50  0001 C CNN
F 3 "" H 1300 5000 50  0001 C CNN
	1    1300 5000
	1    0    0    -1  
$EndComp
$Comp
L power:GND #PWR0132
U 1 1 5C8CBE0A
P 1300 5400
F 0 "#PWR0132" H 1300 5150 50  0001 C CNN
F 1 "GND" H 1305 5227 50  0000 C CNN
F 2 "" H 1300 5400 50  0001 C CNN
F 3 "" H 1300 5400 50  0001 C CNN
	1    1300 5400
	1    0    0    -1  
$EndComp
Wire Wire Line
	1300 5000 1300 5050
Wire Wire Line
	1300 5350 1300 5400
$Comp
L Device:C C2
U 1 1 5C8E297B
P 2300 5200
F 0 "C2" H 2415 5246 50  0000 L CNN
F 1 "100nF" H 2415 5155 50  0000 L CNN
F 2 "Capacitor_SMD:C_0805_2012Metric" H 2338 5050 50  0001 C CNN
F 3 "~" H 2300 5200 50  0001 C CNN
F 4 "RS" H 2300 5200 50  0001 C CNN "Supplier"
F 5 "378-665" H 2300 5200 50  0001 C CNN "Supplier Nr."
F 6 "EPCOS" H 2300 5200 50  0001 C CNN "Manufacturer"
F 7 "08052R104K8BB" H 2300 5200 50  0001 C CNN "Manufacturer Nr."
F 8 "0.047" H 2300 5200 50  0001 C CNN "Price"
	1    2300 5200
	1    0    0    -1  
$EndComp
$Comp
L power:+3.3V #PWR0133
U 1 1 5C8E2982
P 2300 5000
F 0 "#PWR0133" H 2300 4850 50  0001 C CNN
F 1 "+3.3V" H 2315 5173 50  0000 C CNN
F 2 "" H 2300 5000 50  0001 C CNN
F 3 "" H 2300 5000 50  0001 C CNN
	1    2300 5000
	1    0    0    -1  
$EndComp
$Comp
L power:GND #PWR0134
U 1 1 5C8E2988
P 2300 5400
F 0 "#PWR0134" H 2300 5150 50  0001 C CNN
F 1 "GND" H 2305 5227 50  0000 C CNN
F 2 "" H 2300 5400 50  0001 C CNN
F 3 "" H 2300 5400 50  0001 C CNN
	1    2300 5400
	1    0    0    -1  
$EndComp
Wire Wire Line
	2300 5000 2300 5050
Wire Wire Line
	2300 5350 2300 5400
$Comp
L Device:C C3
U 1 1 5C8EA5E6
P 3250 5200
F 0 "C3" H 3365 5246 50  0000 L CNN
F 1 "100nF" H 3365 5155 50  0000 L CNN
F 2 "Capacitor_SMD:C_0805_2012Metric" H 3288 5050 50  0001 C CNN
F 3 "~" H 3250 5200 50  0001 C CNN
F 4 "RS" H 3250 5200 50  0001 C CNN "Supplier"
F 5 "378-665" H 3250 5200 50  0001 C CNN "Supplier Nr."
F 6 "EPCOS" H 3250 5200 50  0001 C CNN "Manufacturer"
F 7 "08052R104K8BB" H 3250 5200 50  0001 C CNN "Manufacturer Nr."
F 8 "0.047" H 3250 5200 50  0001 C CNN "Price"
	1    3250 5200
	1    0    0    -1  
$EndComp
$Comp
L power:+3.3V #PWR0135
U 1 1 5C8EA5ED
P 3250 5000
F 0 "#PWR0135" H 3250 4850 50  0001 C CNN
F 1 "+3.3V" H 3265 5173 50  0000 C CNN
F 2 "" H 3250 5000 50  0001 C CNN
F 3 "" H 3250 5000 50  0001 C CNN
	1    3250 5000
	1    0    0    -1  
$EndComp
$Comp
L power:GND #PWR0136
U 1 1 5C8EA5F3
P 3250 5400
F 0 "#PWR0136" H 3250 5150 50  0001 C CNN
F 1 "GND" H 3255 5227 50  0000 C CNN
F 2 "" H 3250 5400 50  0001 C CNN
F 3 "" H 3250 5400 50  0001 C CNN
	1    3250 5400
	1    0    0    -1  
$EndComp
Wire Wire Line
	3250 5000 3250 5050
Wire Wire Line
	3250 5350 3250 5400
$Comp
L Device:C C5
U 1 1 5C8F24E0
P 4200 5200
F 0 "C5" H 4315 5246 50  0000 L CNN
F 1 "100nF" H 4315 5155 50  0000 L CNN
F 2 "Capacitor_SMD:C_0805_2012Metric" H 4238 5050 50  0001 C CNN
F 3 "~" H 4200 5200 50  0001 C CNN
F 4 "RS" H 4200 5200 50  0001 C CNN "Supplier"
F 5 "378-665" H 4200 5200 50  0001 C CNN "Supplier Nr."
F 6 "EPCOS" H 4200 5200 50  0001 C CNN "Manufacturer"
F 7 "08052R104K8BB" H 4200 5200 50  0001 C CNN "Manufacturer Nr."
F 8 "0.047" H 4200 5200 50  0001 C CNN "Price"
	1    4200 5200
	1    0    0    -1  
$EndComp
$Comp
L power:+3.3V #PWR0137
U 1 1 5C8F24E7
P 4200 5000
F 0 "#PWR0137" H 4200 4850 50  0001 C CNN
F 1 "+3.3V" H 4215 5173 50  0000 C CNN
F 2 "" H 4200 5000 50  0001 C CNN
F 3 "" H 4200 5000 50  0001 C CNN
	1    4200 5000
	1    0    0    -1  
$EndComp
$Comp
L power:GND #PWR0138
U 1 1 5C8F24ED
P 4200 5400
F 0 "#PWR0138" H 4200 5150 50  0001 C CNN
F 1 "GND" H 4205 5227 50  0000 C CNN
F 2 "" H 4200 5400 50  0001 C CNN
F 3 "" H 4200 5400 50  0001 C CNN
	1    4200 5400
	1    0    0    -1  
$EndComp
Wire Wire Line
	4200 5000 4200 5050
Wire Wire Line
	4200 5350 4200 5400
$Comp
L Device:C C7
U 1 1 5C8FA7AB
P 5100 5200
F 0 "C7" H 5215 5246 50  0000 L CNN
F 1 "100nF" H 5215 5155 50  0000 L CNN
F 2 "Capacitor_SMD:C_0805_2012Metric" H 5138 5050 50  0001 C CNN
F 3 "~" H 5100 5200 50  0001 C CNN
F 4 "RS" H 5100 5200 50  0001 C CNN "Supplier"
F 5 "378-665" H 5100 5200 50  0001 C CNN "Supplier Nr."
F 6 "EPCOS" H 5100 5200 50  0001 C CNN "Manufacturer"
F 7 "08052R104K8BB" H 5100 5200 50  0001 C CNN "Manufacturer Nr."
F 8 "0.047" H 5100 5200 50  0001 C CNN "Price"
	1    5100 5200
	1    0    0    -1  
$EndComp
$Comp
L power:+3.3V #PWR0139
U 1 1 5C8FA7B2
P 5100 5000
F 0 "#PWR0139" H 5100 4850 50  0001 C CNN
F 1 "+3.3V" H 5115 5173 50  0000 C CNN
F 2 "" H 5100 5000 50  0001 C CNN
F 3 "" H 5100 5000 50  0001 C CNN
	1    5100 5000
	1    0    0    -1  
$EndComp
$Comp
L power:GND #PWR0140
U 1 1 5C8FA7B8
P 5100 5400
F 0 "#PWR0140" H 5100 5150 50  0001 C CNN
F 1 "GND" H 5105 5227 50  0000 C CNN
F 2 "" H 5100 5400 50  0001 C CNN
F 3 "" H 5100 5400 50  0001 C CNN
	1    5100 5400
	1    0    0    -1  
$EndComp
Wire Wire Line
	5100 5000 5100 5050
Wire Wire Line
	5100 5350 5100 5400
$Comp
L Device:C C8
U 1 1 5C902B5F
P 6000 5200
F 0 "C8" H 6115 5246 50  0000 L CNN
F 1 "100nF" H 6115 5155 50  0000 L CNN
F 2 "Capacitor_SMD:C_0805_2012Metric" H 6038 5050 50  0001 C CNN
F 3 "~" H 6000 5200 50  0001 C CNN
F 4 "RS" H 6000 5200 50  0001 C CNN "Supplier"
F 5 "378-665" H 6000 5200 50  0001 C CNN "Supplier Nr."
F 6 "EPCOS" H 6000 5200 50  0001 C CNN "Manufacturer"
F 7 "08052R104K8BB" H 6000 5200 50  0001 C CNN "Manufacturer Nr."
F 8 "0.047" H 6000 5200 50  0001 C CNN "Price"
	1    6000 5200
	1    0    0    -1  
$EndComp
$Comp
L power:+3.3V #PWR0141
U 1 1 5C902B66
P 6000 5000
F 0 "#PWR0141" H 6000 4850 50  0001 C CNN
F 1 "+3.3V" H 6015 5173 50  0000 C CNN
F 2 "" H 6000 5000 50  0001 C CNN
F 3 "" H 6000 5000 50  0001 C CNN
	1    6000 5000
	1    0    0    -1  
$EndComp
$Comp
L power:GND #PWR0142
U 1 1 5C902B6C
P 6000 5400
F 0 "#PWR0142" H 6000 5150 50  0001 C CNN
F 1 "GND" H 6005 5227 50  0000 C CNN
F 2 "" H 6000 5400 50  0001 C CNN
F 3 "" H 6000 5400 50  0001 C CNN
	1    6000 5400
	1    0    0    -1  
$EndComp
Wire Wire Line
	6000 5000 6000 5050
Wire Wire Line
	6000 5350 6000 5400
Wire Wire Line
	6750 2750 6750 2950
Wire Wire Line
	6750 2950 7300 2950
Connection ~ 6750 2950
Wire Wire Line
	6750 2950 6750 3150
Text Label 6900 2950 0    50   ~ 0
RESET
$Comp
L Connector_Generic:Conn_01x01 J4
U 1 1 5C92CFD9
P 7500 1800
F 0 "J4" H 7580 1842 50  0000 L CNN
F 1 "Conn_01x01" H 7580 1751 50  0000 L CNN
F 2 "Connector_PinHeader_2.54mm:PinHeader_1x01_P2.54mm_Vertical" H 7500 1800 50  0001 C CNN
F 3 "~" H 7500 1800 50  0001 C CNN
F 4 "RS" H 7500 1800 50  0001 C CNN "Supplier"
F 5 "674-2312" H 7500 1800 50  0001 C CNN "Supplier Nr."
F 6 "ASSMANN WSW " H 7500 1800 50  0001 C CNN "Manufacturer"
F 7 "AW140-EG-G36B" H 7500 1800 50  0001 C CNN "Manufacturer Nr."
F 8 "0.515" H 7500 1800 50  0001 C CNN "Price"
	1    7500 1800
	1    0    0    -1  
$EndComp
Text Label 6950 1800 0    50   ~ 0
RESET
Wire Wire Line
	6950 1800 7300 1800
$Comp
L Connector:USB_B_Mini J1
U 1 1 5C983B66
P 950 1300
F 0 "J1" H 1005 1767 50  0000 C CNN
F 1 "USB_B_Mini" H 1005 1676 50  0000 C CNN
F 2 "Connector_USB:USB_Micro-B_Molex_47346-0001" H 1100 1250 50  0001 C CNN
F 3 "~" H 1100 1250 50  0001 C CNN
F 4 "RS" H 950 1300 50  0001 C CNN "Supplier"
F 5 "702-5475" H 950 1300 50  0001 C CNN "Supplier Nr."
F 6 "Molex" H 950 1300 50  0001 C CNN "Manufacturer"
F 7 "47346-0001" H 950 1300 50  0001 C CNN "Manufacturer Nr."
F 8 "0.866" H 950 1300 50  0001 C CNN "Price"
	1    950  1300
	1    0    0    -1  
$EndComp
Wire Wire Line
	1500 1000 1500 1100
Wire Wire Line
	1500 1100 1250 1100
$Comp
L power:GND #PWR0143
U 1 1 5C995485
P 950 1800
F 0 "#PWR0143" H 950 1550 50  0001 C CNN
F 1 "GND" H 955 1627 50  0000 C CNN
F 2 "" H 950 1800 50  0001 C CNN
F 3 "" H 950 1800 50  0001 C CNN
	1    950  1800
	1    0    0    -1  
$EndComp
Wire Wire Line
	950  1700 950  1750
Text Label 1400 1400 0    50   ~ 0
D-
Text Label 1400 1300 0    50   ~ 0
D+
Wire Wire Line
	1400 1300 1250 1300
Wire Wire Line
	1250 1400 1400 1400
Wire Wire Line
	950  1750 850  1750
Wire Wire Line
	850  1750 850  1700
Connection ~ 950  1750
Wire Wire Line
	950  1750 950  1800
$Comp
L power:VBUS #PWR0144
U 1 1 5C9FCA93
P 1500 1000
F 0 "#PWR0144" H 1500 850 50  0001 C CNN
F 1 "VBUS" H 1515 1173 50  0000 C CNN
F 2 "" H 1500 1000 50  0001 C CNN
F 3 "" H 1500 1000 50  0001 C CNN
	1    1500 1000
	1    0    0    -1  
$EndComp
$Comp
L myParts:USB_B_Mini_PCB J2
U 1 1 5C72608A
P 2100 1300
F 0 "J2" H 2155 1767 50  0000 C CNN
F 1 "USB_B_Mini_PCB" H 2155 1676 50  0000 C CNN
F 2 "myParts:USB_TYPE_B_SS_2" H 2100 500 50  0001 C CNN
F 3 "~" H 2250 1250 50  0001 C CNN
	1    2100 1300
	1    0    0    -1  
$EndComp
$Comp
L power:VBUS #PWR0145
U 1 1 5C72615C
P 2600 1000
F 0 "#PWR0145" H 2600 850 50  0001 C CNN
F 1 "VBUS" H 2615 1173 50  0000 C CNN
F 2 "" H 2600 1000 50  0001 C CNN
F 3 "" H 2600 1000 50  0001 C CNN
	1    2600 1000
	1    0    0    -1  
$EndComp
Wire Wire Line
	2600 1000 2600 1100
Wire Wire Line
	2600 1100 2400 1100
Text Label 2500 1300 0    50   ~ 0
D+
Text Label 2500 1400 0    50   ~ 0
D-
$Comp
L power:GND #PWR0146
U 1 1 5C73078A
P 2100 1800
F 0 "#PWR0146" H 2100 1550 50  0001 C CNN
F 1 "GND" H 2105 1627 50  0000 C CNN
F 2 "" H 2100 1800 50  0001 C CNN
F 3 "" H 2100 1800 50  0001 C CNN
	1    2100 1800
	1    0    0    -1  
$EndComp
Wire Wire Line
	2400 1400 2500 1400
Wire Wire Line
	2500 1300 2400 1300
Wire Wire Line
	2100 1700 2100 1800
$Comp
L Connector_Generic:Conn_01x02 J6
U 1 1 5C7359DA
P 8750 2300
F 0 "J6" H 8830 2292 50  0000 L CNN
F 1 "Conn_01x02" H 8830 2201 50  0000 L CNN
F 2 "Connector_PinHeader_2.54mm:PinHeader_1x02_P2.54mm_Vertical" H 8750 2300 50  0001 C CNN
F 3 "~" H 8750 2300 50  0001 C CNN
F 4 "RS" H 8750 2300 50  0001 C CNN "Supplier"
F 5 "674-2312" H 8750 2300 50  0001 C CNN "Supplier Nr."
F 6 "ASSMANN WSW" H 8750 2300 50  0001 C CNN "Manufacturer"
F 7 "AW140-EG-G36B" H 8750 2300 50  0001 C CNN "Manufacturer Nr."
F 8 "0.515" H 8750 2300 50  0001 C CNN "Price"
	1    8750 2300
	1    0    0    -1  
$EndComp
$Comp
L Connector_Generic:Conn_01x02 J8
U 1 1 5C74054D
P 8750 1350
F 0 "J8" H 8830 1342 50  0000 L CNN
F 1 "Conn_01x02" H 8830 1251 50  0000 L CNN
F 2 "Connector_PinHeader_2.54mm:PinHeader_1x02_P2.54mm_Vertical" H 8750 1350 50  0001 C CNN
F 3 "~" H 8750 1350 50  0001 C CNN
F 4 "RS" H 8750 1350 50  0001 C CNN "Supplier"
F 5 "674-2312" H 8750 1350 50  0001 C CNN "Supplier Nr."
F 6 "ASSMANN WSW" H 8750 1350 50  0001 C CNN "Manufacturer"
F 7 "AW140-EG-G36B" H 8750 1350 50  0001 C CNN "Manufacturer Nr."
F 8 "0.515" H 8750 1350 50  0001 C CNN "Price"
	1    8750 1350
	1    0    0    -1  
$EndComp
$Comp
L Connector_Generic:Conn_01x04 J7
U 1 1 5C74B2C6
P 8750 1000
F 0 "J7" H 8830 992 50  0000 L CNN
F 1 "Conn_01x04" H 8830 901 50  0000 L CNN
F 2 "Connector_PinHeader_2.54mm:PinHeader_1x04_P2.54mm_Vertical" H 8750 1000 50  0001 C CNN
F 3 "~" H 8750 1000 50  0001 C CNN
F 4 "RS" H 8750 1000 50  0001 C CNN "Supplier"
F 5 "674-2312" H 8750 1000 50  0001 C CNN "Supplier Nr."
F 6 "ASSMANN WSW " H 8750 1000 50  0001 C CNN "Manufacturer"
F 7 "AW140-EG-G36B" H 8750 1000 50  0001 C CNN "Manufacturer Nr."
F 8 "0.515" H 8750 1000 50  0001 C CNN "Price"
	1    8750 1000
	1    0    0    -1  
$EndComp
Wire Wire Line
	7950 2400 8450 2400
$Comp
L Device:R R2
U 1 1 5C7ACF6B
P 8350 1950
F 0 "R2" H 8280 1904 50  0000 R CNN
F 1 "4.7k" H 8280 1995 50  0000 R CNN
F 2 "Resistor_SMD:R_0805_2012Metric" V 8280 1950 50  0001 C CNN
F 3 "~" H 8350 1950 50  0001 C CNN
F 4 "RS" H 8350 1950 50  0001 C CNN "Supplier"
F 5 "901-3698" H 8350 1950 50  0001 C CNN "Supplier Nr."
F 6 "ROHM" H 8350 1950 50  0001 C CNN "Manufacturer"
F 7 "MCR10EZPF4701" H 8350 1950 50  0001 C CNN "Manufacturer Nr."
F 8 "0.012" H 8350 1950 50  0001 C CNN "Price"
	1    8350 1950
	1    0    0    1   
$EndComp
$Comp
L power:+3.3V #PWR01
U 1 1 5C7AD27F
P 8400 1750
F 0 "#PWR01" H 8400 1600 50  0001 C CNN
F 1 "+3.3V" H 8415 1923 50  0000 C CNN
F 2 "" H 8400 1750 50  0001 C CNN
F 3 "" H 8400 1750 50  0001 C CNN
	1    8400 1750
	1    0    0    -1  
$EndComp
Wire Wire Line
	8350 1750 8350 1800
Wire Wire Line
	8450 1750 8450 1950
Connection ~ 8400 1750
Wire Wire Line
	8350 2100 8350 2300
Wire Wire Line
	8450 2250 8450 2400
Wire Wire Line
	8400 1750 8450 1750
Wire Wire Line
	8350 1750 8400 1750
Wire Wire Line
	7950 2300 8350 2300
Connection ~ 8450 2400
Wire Wire Line
	8450 2400 8550 2400
Wire Wire Line
	8350 2300 8550 2300
Connection ~ 8350 2300
$Comp
L Device:R R3
U 1 1 5C836972
P 8450 2100
F 0 "R3" H 8520 2146 50  0000 L CNN
F 1 "4.7k" H 8520 2055 50  0000 L CNN
F 2 "Resistor_SMD:R_0805_2012Metric" V 8380 2100 50  0001 C CNN
F 3 "~" H 8450 2100 50  0001 C CNN
F 4 "RS" H 8450 2100 50  0001 C CNN "Supplier"
F 5 "901-3698" H 8450 2100 50  0001 C CNN "Supplier Nr."
F 6 "ROHM" H 8450 2100 50  0001 C CNN "Manufacturer"
F 7 "MCR10EZPF4701" H 8450 2100 50  0001 C CNN "Manufacturer Nr."
F 8 "0.012" H 8450 2100 50  0001 C CNN "Price"
	1    8450 2100
	1    0    0    -1  
$EndComp
$EndSCHEMATC
