EESchema Schematic File Version 4
LIBS:touch-cache
EELAYER 26 0
EELAYER END
$Descr A4 11693 8268
encoding utf-8
Sheet 1 1
Title ""
Date ""
Rev ""
Comp ""
Comment1 ""
Comment2 ""
Comment3 ""
Comment4 ""
$EndDescr
$Comp
L MCU_Microchip_ATtiny:ATtiny2313-20SU U2
U 1 1 5C0D6CA1
P 7900 4150
F 0 "U2" H 7450 5200 50  0000 C CNN
F 1 "ATtiny2313-20SU" V 7350 3500 50  0000 C CNN
F 2 "Package_SO:SOIC-20W_7.5x12.8mm_P1.27mm" H 7900 4150 50  0001 C CIN
F 3 "http://ww1.microchip.com/downloads/en/DeviceDoc/Atmel-2543-AVR-ATtiny2313_Datasheet.pdf" H 7900 4150 50  0001 C CNN
	1    7900 4150
	1    0    0    -1  
$EndComp
$Comp
L power:PWR_FLAG #FLG0102
U 1 1 5C13A4D0
P 3900 1100
F 0 "#FLG0102" H 3900 1175 50  0001 C CNN
F 1 "PWR_FLAG" H 3900 1273 50  0000 C CNN
F 2 "" H 3900 1100 50  0001 C CNN
F 3 "~" H 3900 1100 50  0001 C CNN
	1    3900 1100
	-1   0    0    1   
$EndComp
$Comp
L Regulator_Switching:MCP1640CH U1
U 1 1 5C13AC5E
P 2850 1650
AR Path="/5C13AC5E" Ref="U1"  Part="1" 
AR Path="/5C0D7C62/5C13AC5E" Ref="U?"  Part="1" 
F 0 "U1" H 2850 2117 50  0000 C CNN
F 1 "MCP1640CH" H 2850 2026 50  0000 C CNN
F 2 "Package_TO_SOT_SMD:SOT-23-6" H 2900 1400 50  0001 L CIN
F 3 "http://ww1.microchip.com/downloads/en/DeviceDoc/20002234D.pdf" H 2600 2100 50  0001 C CNN
	1    2850 1650
	1    0    0    -1  
$EndComp
$Comp
L Device:C C4
U 1 1 5C13AC6C
P 4000 1700
AR Path="/5C13AC6C" Ref="C4"  Part="1" 
AR Path="/5C0D7C62/5C13AC6C" Ref="C?"  Part="1" 
F 0 "C4" H 4115 1746 50  0000 L CNN
F 1 "10uF" H 4115 1655 50  0000 L CNN
F 2 "" H 4038 1550 50  0001 C CNN
F 3 "~" H 4000 1700 50  0001 C CNN
	1    4000 1700
	1    0    0    -1  
$EndComp
$Comp
L Device:L L1
U 1 1 5C13AC73
P 2800 1050
AR Path="/5C13AC73" Ref="L1"  Part="1" 
AR Path="/5C0D7C62/5C13AC73" Ref="L?"  Part="1" 
F 0 "L1" V 2990 1050 50  0000 C CNN
F 1 "4.7uH" V 2900 1050 50  0000 C CNN
F 2 "" H 2800 1050 50  0001 C CNN
F 3 "~" H 2800 1050 50  0001 C CNN
	1    2800 1050
	0    -1   -1   0   
$EndComp
$Comp
L Device:R R9
U 1 1 5C13AC7A
P 3550 1700
AR Path="/5C13AC7A" Ref="R9"  Part="1" 
AR Path="/5C0D7C62/5C13AC7A" Ref="R?"  Part="1" 
F 0 "R9" H 3620 1746 50  0000 L CNN
F 1 "976k" H 3620 1655 50  0000 L CNN
F 2 "" V 3480 1700 50  0001 C CNN
F 3 "~" H 3550 1700 50  0001 C CNN
	1    3550 1700
	1    0    0    -1  
$EndComp
$Comp
L Device:R R10
U 1 1 5C13AC81
P 3550 2100
AR Path="/5C13AC81" Ref="R10"  Part="1" 
AR Path="/5C0D7C62/5C13AC81" Ref="R?"  Part="1" 
F 0 "R10" H 3620 2146 50  0000 L CNN
F 1 "562k" H 3620 2055 50  0000 L CNN
F 2 "" V 3480 2100 50  0001 C CNN
F 3 "~" H 3550 2100 50  0001 C CNN
	1    3550 2100
	1    0    0    -1  
$EndComp
$Comp
L Device:Battery_Cell BT1
U 1 1 5C13AC88
P 1250 1700
AR Path="/5C13AC88" Ref="BT1"  Part="1" 
AR Path="/5C0D7C62/5C13AC88" Ref="BT?"  Part="1" 
F 0 "BT1" H 600 1750 50  0000 L CNN
F 1 "Battery_Cell" H 600 1700 50  0000 L CNN
F 2 "" V 1250 1760 50  0001 C CNN
F 3 "~" V 1250 1760 50  0001 C CNN
	1    1250 1700
	1    0    0    -1  
$EndComp
$Comp
L power:GND #PWR?
U 1 1 5C13AC8F
P 4200 1950
AR Path="/5C0D7C62/5C13AC8F" Ref="#PWR?"  Part="1" 
AR Path="/5C13AC8F" Ref="#PWR0101"  Part="1" 
F 0 "#PWR0101" H 4200 1700 50  0001 C CNN
F 1 "GND" H 4205 1777 50  0000 C CNN
F 2 "" H 4200 1950 50  0001 C CNN
F 3 "" H 4200 1950 50  0001 C CNN
	1    4200 1950
	1    0    0    -1  
$EndComp
$Comp
L power:GND #PWR?
U 1 1 5C13ACAD
P 3550 2300
AR Path="/5C0D7C62/5C13ACAD" Ref="#PWR?"  Part="1" 
AR Path="/5C13ACAD" Ref="#PWR0102"  Part="1" 
F 0 "#PWR0102" H 3550 2050 50  0001 C CNN
F 1 "GND" H 3555 2127 50  0000 C CNN
F 2 "" H 3550 2300 50  0001 C CNN
F 3 "" H 3550 2300 50  0001 C CNN
	1    3550 2300
	1    0    0    -1  
$EndComp
$Comp
L power:GND #PWR?
U 1 1 5C13ACB3
P 1550 1950
AR Path="/5C0D7C62/5C13ACB3" Ref="#PWR?"  Part="1" 
AR Path="/5C13ACB3" Ref="#PWR0103"  Part="1" 
F 0 "#PWR0103" H 1550 1700 50  0001 C CNN
F 1 "GND" H 1555 1777 50  0000 C CNN
F 2 "" H 1550 1950 50  0001 C CNN
F 3 "" H 1550 1950 50  0001 C CNN
	1    1550 1950
	1    0    0    -1  
$EndComp
$Comp
L power:GND #PWR?
U 1 1 5C13ACB9
P 2850 2100
AR Path="/5C0D7C62/5C13ACB9" Ref="#PWR?"  Part="1" 
AR Path="/5C13ACB9" Ref="#PWR0104"  Part="1" 
F 0 "#PWR0104" H 2850 1850 50  0001 C CNN
F 1 "GND" H 2855 1927 50  0000 C CNN
F 2 "" H 2850 2100 50  0001 C CNN
F 3 "" H 2850 2100 50  0001 C CNN
	1    2850 2100
	1    0    0    -1  
$EndComp
$Comp
L power:GND #PWR?
U 1 1 5C13ACBF
P 1250 1950
AR Path="/5C0D7C62/5C13ACBF" Ref="#PWR?"  Part="1" 
AR Path="/5C13ACBF" Ref="#PWR0105"  Part="1" 
F 0 "#PWR0105" H 1250 1700 50  0001 C CNN
F 1 "GND" H 1255 1777 50  0000 C CNN
F 2 "" H 1250 1950 50  0001 C CNN
F 3 "" H 1250 1950 50  0001 C CNN
	1    1250 1950
	1    0    0    -1  
$EndComp
Wire Wire Line
	1250 1950 1250 1800
Wire Wire Line
	1550 1800 1550 1900
Wire Wire Line
	3550 2250 3550 2300
$Comp
L power:+3.3V #PWR?
U 1 1 5C13ACCA
P 4850 1300
AR Path="/5C0D7C62/5C13ACCA" Ref="#PWR?"  Part="1" 
AR Path="/5C13ACCA" Ref="#PWR0106"  Part="1" 
F 0 "#PWR0106" H 4850 1150 50  0001 C CNN
F 1 "+3.3V" H 4865 1473 50  0000 C CNN
F 2 "" H 4850 1300 50  0001 C CNN
F 3 "" H 4850 1300 50  0001 C CNN
	1    4850 1300
	1    0    0    -1  
$EndComp
$Comp
L Device:C C1
U 1 1 5C13AC65
P 1550 1650
AR Path="/5C13AC65" Ref="C1"  Part="1" 
AR Path="/5C0D7C62/5C13AC65" Ref="C?"  Part="1" 
F 0 "C1" H 1665 1696 50  0000 L CNN
F 1 "4.7uF" H 1665 1605 50  0000 L CNN
F 2 "" H 1588 1500 50  0001 C CNN
F 3 "~" H 1550 1650 50  0001 C CNN
	1    1550 1650
	1    0    0    -1  
$EndComp
Wire Wire Line
	3550 1850 3550 1900
$Comp
L Device:C C2
U 1 1 5C13BFF8
P 2000 1650
AR Path="/5C13BFF8" Ref="C2"  Part="1" 
AR Path="/5C0D7C62/5C13BFF8" Ref="C?"  Part="1" 
F 0 "C2" H 2115 1696 50  0000 L CNN
F 1 "100nF" H 2115 1605 50  0000 L CNN
F 2 "" H 2038 1500 50  0001 C CNN
F 3 "~" H 2000 1650 50  0001 C CNN
	1    2000 1650
	1    0    0    -1  
$EndComp
$Comp
L Device:C C5
U 1 1 5C13C412
P 4400 1700
AR Path="/5C13C412" Ref="C5"  Part="1" 
AR Path="/5C0D7C62/5C13C412" Ref="C?"  Part="1" 
F 0 "C5" H 4515 1746 50  0000 L CNN
F 1 "100nF" H 4515 1655 50  0000 L CNN
F 2 "" H 4438 1550 50  0001 C CNN
F 3 "~" H 4400 1700 50  0001 C CNN
	1    4400 1700
	1    0    0    -1  
$EndComp
Wire Wire Line
	2000 1800 2000 1900
Wire Wire Line
	2000 1900 1550 1900
Connection ~ 1550 1900
Wire Wire Line
	1550 1900 1550 1950
Wire Wire Line
	1250 1500 1250 1450
Wire Wire Line
	1250 1450 1550 1450
Wire Wire Line
	1550 1500 1550 1450
Connection ~ 1550 1450
Wire Wire Line
	1550 1450 2000 1450
Wire Wire Line
	2000 1450 2000 1500
Connection ~ 2000 1450
Wire Wire Line
	2000 1450 2300 1450
Wire Wire Line
	2300 1450 2300 1050
Wire Wire Line
	2300 1050 2650 1050
Connection ~ 2300 1450
Wire Wire Line
	2300 1450 2450 1450
Wire Wire Line
	3400 1050 3400 1450
Wire Wire Line
	3400 1450 3250 1450
Wire Wire Line
	2950 1050 3400 1050
Wire Wire Line
	3250 1550 3550 1550
Wire Wire Line
	3550 1900 3350 1900
Wire Wire Line
	3350 1900 3350 1750
Wire Wire Line
	3350 1750 3250 1750
Connection ~ 3550 1900
Wire Wire Line
	3550 1900 3550 1950
Wire Wire Line
	2850 1950 2850 2100
Wire Wire Line
	3550 1550 4000 1550
Wire Wire Line
	4850 1300 4850 1550
Connection ~ 3550 1550
Connection ~ 4000 1550
Wire Wire Line
	4000 1550 4400 1550
Connection ~ 4400 1550
Wire Wire Line
	4400 1550 4850 1550
$Comp
L power:+3.3V #PWR?
U 1 1 5C13D3EA
P 3900 1000
AR Path="/5C0D7C62/5C13D3EA" Ref="#PWR?"  Part="1" 
AR Path="/5C13D3EA" Ref="#PWR0107"  Part="1" 
F 0 "#PWR0107" H 3900 850 50  0001 C CNN
F 1 "+3.3V" H 3915 1173 50  0000 C CNN
F 2 "" H 3900 1000 50  0001 C CNN
F 3 "" H 3900 1000 50  0001 C CNN
	1    3900 1000
	1    0    0    -1  
$EndComp
$Comp
L power:GND #PWR?
U 1 1 5C13D436
P 4350 1100
AR Path="/5C0D7C62/5C13D436" Ref="#PWR?"  Part="1" 
AR Path="/5C13D436" Ref="#PWR0108"  Part="1" 
F 0 "#PWR0108" H 4350 850 50  0001 C CNN
F 1 "GND" H 4355 927 50  0000 C CNN
F 2 "" H 4350 1100 50  0001 C CNN
F 3 "" H 4350 1100 50  0001 C CNN
	1    4350 1100
	1    0    0    -1  
$EndComp
$Comp
L power:PWR_FLAG #FLG0101
U 1 1 5C13D457
P 4350 1000
F 0 "#FLG0101" H 4350 1075 50  0001 C CNN
F 1 "PWR_FLAG" H 4350 1174 50  0000 C CNN
F 2 "" H 4350 1000 50  0001 C CNN
F 3 "~" H 4350 1000 50  0001 C CNN
	1    4350 1000
	1    0    0    -1  
$EndComp
Wire Wire Line
	4000 1850 4000 1900
Wire Wire Line
	4000 1900 4200 1900
Wire Wire Line
	4400 1900 4400 1850
Wire Wire Line
	4200 1900 4200 1950
Connection ~ 4200 1900
Wire Wire Line
	4200 1900 4400 1900
Wire Wire Line
	3900 1000 3900 1100
Wire Wire Line
	4350 1100 4350 1000
$Comp
L myParts:Touch_Sens_Guard S1
U 1 1 5C13ACD3
P 1200 3450
F 0 "S1" H 900 3850 50  0000 C CNN
F 1 "Touch_Sens_Guard" H 1200 3000 50  0000 C CNN
F 2 "" H 1200 3450 50  0001 C CNN
F 3 "" H 1200 3450 50  0001 C CNN
	1    1200 3450
	1    0    0    -1  
$EndComp
$Comp
L myParts:Touch_Sens_Guard S2
U 1 1 5C13AEE7
P 1200 4450
F 0 "S2" H 900 4850 50  0000 C CNN
F 1 "Touch_Sens_Guard" H 1200 4000 50  0000 C CNN
F 2 "" H 1200 4450 50  0001 C CNN
F 3 "" H 1200 4450 50  0001 C CNN
	1    1200 4450
	1    0    0    -1  
$EndComp
$Comp
L myParts:Touch_Sens_Guard S3
U 1 1 5C13AF71
P 1200 5450
F 0 "S3" H 900 5850 50  0000 C CNN
F 1 "Touch_Sens_Guard" H 1200 5000 50  0000 C CNN
F 2 "" H 1200 5450 50  0001 C CNN
F 3 "" H 1200 5450 50  0001 C CNN
	1    1200 5450
	1    0    0    -1  
$EndComp
$Comp
L myParts:Touch_Sens_Guard S4
U 1 1 5C13AFF9
P 1200 6450
F 0 "S4" H 900 6850 50  0000 C CNN
F 1 "Touch_Sens_Guard" H 1200 6000 50  0000 C CNN
F 2 "" H 1200 6450 50  0001 C CNN
F 3 "" H 1200 6450 50  0001 C CNN
	1    1200 6450
	1    0    0    -1  
$EndComp
$Comp
L myParts:MTCH105-I_ST IC1
U 1 1 5C13B18D
P 3500 4050
F 0 "IC1" H 4300 4315 50  0000 C CNN
F 1 "MTCH105-I_ST" H 4300 4224 50  0000 C CNN
F 2 "SOP65P640X120-14N" H 3700 4700 50  0001 L CNN
F 3 "https://componentsearchengine.com/Datasheets/1/MTCH105-I_ST.pdf" H 3700 4600 50  0001 L CNN
F 4 "MTCH105-I/ST, Capacitive Touch Screen Controller Simple I/O, 14-Pin TSSOP" H 3700 4500 50  0001 L CNN "Description"
F 5 "1.2" H 3700 4900 50  0001 L CNN "Height"
F 6 "579-MTCH105-I/ST" H 3700 4400 50  0001 L CNN "Mouser Part Number"
F 7 "Microchip" H 3700 4800 50  0001 L CNN "Manufacturer_Name"
F 8 "MTCH105-I/ST" H 3700 4300 50  0001 L CNN "Manufacturer_Part_Number"
	1    3500 4050
	1    0    0    -1  
$EndComp
$Comp
L Device:R R1
U 1 1 5C13B355
P 1900 3450
F 0 "R1" V 1693 3450 50  0000 C CNN
F 1 "10k" V 1784 3450 50  0000 C CNN
F 2 "" V 1830 3450 50  0001 C CNN
F 3 "~" H 1900 3450 50  0001 C CNN
	1    1900 3450
	0    1    1    0   
$EndComp
$Comp
L Device:R R2
U 1 1 5C13B434
P 1900 3750
F 0 "R2" V 1693 3750 50  0000 C CNN
F 1 "0R" V 1784 3750 50  0000 C CNN
F 2 "" V 1830 3750 50  0001 C CNN
F 3 "~" H 1900 3750 50  0001 C CNN
	1    1900 3750
	0    1    1    0   
$EndComp
$Comp
L Device:R R3
U 1 1 5C13B46E
P 1900 4450
F 0 "R3" V 1693 4450 50  0000 C CNN
F 1 "10k" V 1784 4450 50  0000 C CNN
F 2 "" V 1830 4450 50  0001 C CNN
F 3 "~" H 1900 4450 50  0001 C CNN
	1    1900 4450
	0    1    1    0   
$EndComp
$Comp
L Device:R R4
U 1 1 5C13B50C
P 1900 4750
F 0 "R4" V 1693 4750 50  0000 C CNN
F 1 "0R" V 1784 4750 50  0000 C CNN
F 2 "" V 1830 4750 50  0001 C CNN
F 3 "~" H 1900 4750 50  0001 C CNN
	1    1900 4750
	0    1    1    0   
$EndComp
$Comp
L Device:R R5
U 1 1 5C13B54E
P 1900 5450
F 0 "R5" V 1693 5450 50  0000 C CNN
F 1 "10k" V 1784 5450 50  0000 C CNN
F 2 "" V 1830 5450 50  0001 C CNN
F 3 "~" H 1900 5450 50  0001 C CNN
	1    1900 5450
	0    1    1    0   
$EndComp
$Comp
L Device:R R6
U 1 1 5C13B5F4
P 1900 5750
F 0 "R6" V 1693 5750 50  0000 C CNN
F 1 "0R" V 1784 5750 50  0000 C CNN
F 2 "" V 1830 5750 50  0001 C CNN
F 3 "~" H 1900 5750 50  0001 C CNN
	1    1900 5750
	0    1    1    0   
$EndComp
$Comp
L Device:R R7
U 1 1 5C13B6C9
P 1900 6450
F 0 "R7" V 1693 6450 50  0000 C CNN
F 1 "10k" V 1784 6450 50  0000 C CNN
F 2 "" V 1830 6450 50  0001 C CNN
F 3 "~" H 1900 6450 50  0001 C CNN
	1    1900 6450
	0    1    1    0   
$EndComp
$Comp
L Device:R R8
U 1 1 5C13B71D
P 1900 6750
F 0 "R8" V 1693 6750 50  0000 C CNN
F 1 "0R" V 1784 6750 50  0000 C CNN
F 2 "" V 1830 6750 50  0001 C CNN
F 3 "~" H 1900 6750 50  0001 C CNN
	1    1900 6750
	0    1    1    0   
$EndComp
Wire Wire Line
	1600 6450 1750 6450
Wire Wire Line
	1750 6750 1650 6750
Wire Wire Line
	1600 5450 1750 5450
Wire Wire Line
	1750 5750 1650 5750
Wire Wire Line
	1650 3750 1750 3750
Wire Wire Line
	1750 3450 1600 3450
Wire Wire Line
	1600 4450 1750 4450
Wire Wire Line
	1750 4750 1650 4750
Wire Wire Line
	3500 4450 2700 4450
Wire Wire Line
	2700 4450 2700 3450
Wire Wire Line
	2700 3450 2050 3450
Wire Wire Line
	3500 4550 2550 4550
Wire Wire Line
	2550 4550 2550 4450
Wire Wire Line
	2550 4450 2050 4450
Wire Wire Line
	3500 4650 2250 4650
Wire Wire Line
	2250 4650 2250 4750
Wire Wire Line
	2250 4750 2050 4750
Wire Wire Line
	2250 4650 2250 3750
Wire Wire Line
	2250 3750 2050 3750
Connection ~ 2250 4650
Wire Wire Line
	2250 4750 2250 5750
Wire Wire Line
	2250 5750 2050 5750
Connection ~ 2250 4750
Wire Wire Line
	2050 6750 2250 6750
Wire Wire Line
	2250 6750 2250 5750
Connection ~ 2250 5750
Wire Wire Line
	2050 5450 2550 5450
Wire Wire Line
	2550 5450 2550 4750
Wire Wire Line
	2550 4750 3500 4750
Wire Wire Line
	3500 4850 2700 4850
Wire Wire Line
	2700 4850 2700 6450
Wire Wire Line
	2700 6450 2050 6450
$Comp
L Connector:AVR-ISP-6 J1
U 1 1 5C1457A1
P 9900 1500
F 0 "J1" H 9620 1596 50  0000 R CNN
F 1 "AVR-ISP-6" H 9620 1505 50  0000 R CNN
F 2 "" V 9650 1550 50  0001 C CNN
F 3 " ~" H 8625 950 50  0001 C CNN
	1    9900 1500
	1    0    0    -1  
$EndComp
Wire Wire Line
	10300 1300 10800 1300
Wire Wire Line
	10300 1400 10800 1400
Wire Wire Line
	10800 1500 10300 1500
Wire Wire Line
	10300 1600 10800 1600
Text Label 10800 1300 2    50   ~ 0
MISO
Text Label 10800 1400 2    50   ~ 0
MOSI
Text Label 10800 1500 2    50   ~ 0
SCK
Text Label 10800 1600 2    50   ~ 0
RESET
$Comp
L power:+3.3V #PWR?
U 1 1 5C14BA84
P 3300 3700
AR Path="/5C0D7C62/5C14BA84" Ref="#PWR?"  Part="1" 
AR Path="/5C14BA84" Ref="#PWR0109"  Part="1" 
F 0 "#PWR0109" H 3300 3550 50  0001 C CNN
F 1 "+3.3V" H 3315 3873 50  0000 C CNN
F 2 "" H 3300 3700 50  0001 C CNN
F 3 "" H 3300 3700 50  0001 C CNN
	1    3300 3700
	1    0    0    -1  
$EndComp
Wire Wire Line
	3300 4050 3500 4050
Wire Wire Line
	3300 3700 3300 4050
$Comp
L power:GND #PWR?
U 1 1 5C14E49F
P 5200 5100
AR Path="/5C0D7C62/5C14E49F" Ref="#PWR?"  Part="1" 
AR Path="/5C14E49F" Ref="#PWR0110"  Part="1" 
F 0 "#PWR0110" H 5200 4850 50  0001 C CNN
F 1 "GND" H 5205 4927 50  0000 C CNN
F 2 "" H 5200 5100 50  0001 C CNN
F 3 "" H 5200 5100 50  0001 C CNN
	1    5200 5100
	1    0    0    -1  
$EndComp
Wire Wire Line
	5200 4050 5200 4650
Connection ~ 5200 4650
Wire Wire Line
	5200 4650 5200 5100
Text Label 7000 3350 2    50   ~ 0
RESET
Wire Wire Line
	7000 3350 7100 3350
Text Label 8900 4050 2    50   ~ 0
SCK
Wire Wire Line
	8500 4050 8900 4050
Text Label 8900 3850 2    50   ~ 0
MOSI
Text Label 8900 3950 2    50   ~ 0
MISO
Wire Wire Line
	8900 3950 8500 3950
Wire Wire Line
	8500 3850 8900 3850
$Comp
L power:+3.3V #PWR?
U 1 1 5C158E35
P 7900 2900
AR Path="/5C0D7C62/5C158E35" Ref="#PWR?"  Part="1" 
AR Path="/5C158E35" Ref="#PWR0111"  Part="1" 
F 0 "#PWR0111" H 7900 2750 50  0001 C CNN
F 1 "+3.3V" H 7915 3073 50  0000 C CNN
F 2 "" H 7900 2900 50  0001 C CNN
F 3 "" H 7900 2900 50  0001 C CNN
	1    7900 2900
	1    0    0    -1  
$EndComp
Wire Wire Line
	7900 2900 7900 2950
$Comp
L power:GND #PWR?
U 1 1 5C15A8A7
P 7900 5350
AR Path="/5C0D7C62/5C15A8A7" Ref="#PWR?"  Part="1" 
AR Path="/5C15A8A7" Ref="#PWR0112"  Part="1" 
F 0 "#PWR0112" H 7900 5100 50  0001 C CNN
F 1 "GND" H 7905 5177 50  0000 C CNN
F 2 "" H 7900 5350 50  0001 C CNN
F 3 "" H 7900 5350 50  0001 C CNN
	1    7900 5350
	1    0    0    -1  
$EndComp
Wire Wire Line
	7900 5350 7900 5250
$Comp
L Device:LED D1
U 1 1 5C15CEDF
P 3900 6050
F 0 "D1" H 3892 5795 50  0000 C CNN
F 1 "LED" H 3892 5886 50  0000 C CNN
F 2 "" H 3900 6050 50  0001 C CNN
F 3 "~" H 3900 6050 50  0001 C CNN
	1    3900 6050
	-1   0    0    1   
$EndComp
$Comp
L Device:LED D2
U 1 1 5C15D000
P 3900 6450
F 0 "D2" H 3892 6195 50  0000 C CNN
F 1 "LED" H 3892 6286 50  0000 C CNN
F 2 "" H 3900 6450 50  0001 C CNN
F 3 "~" H 3900 6450 50  0001 C CNN
	1    3900 6450
	-1   0    0    1   
$EndComp
$Comp
L Device:LED D3
U 1 1 5C15D04E
P 3900 6850
F 0 "D3" H 3892 6595 50  0000 C CNN
F 1 "LED" H 3892 6686 50  0000 C CNN
F 2 "" H 3900 6850 50  0001 C CNN
F 3 "~" H 3900 6850 50  0001 C CNN
	1    3900 6850
	-1   0    0    1   
$EndComp
$Comp
L Device:LED D4
U 1 1 5C15D0A4
P 3900 7250
F 0 "D4" H 3892 6995 50  0000 C CNN
F 1 "LED" H 3892 7086 50  0000 C CNN
F 2 "" H 3900 7250 50  0001 C CNN
F 3 "~" H 3900 7250 50  0001 C CNN
	1    3900 7250
	-1   0    0    1   
$EndComp
$Comp
L Device:R R11
U 1 1 5C15D1E3
P 4400 6050
F 0 "R11" V 4193 6050 50  0000 C CNN
F 1 "R" V 4284 6050 50  0000 C CNN
F 2 "" V 4330 6050 50  0001 C CNN
F 3 "~" H 4400 6050 50  0001 C CNN
	1    4400 6050
	0    1    1    0   
$EndComp
$Comp
L Device:R R12
U 1 1 5C15D2E4
P 4400 6450
F 0 "R12" V 4193 6450 50  0000 C CNN
F 1 "R" V 4284 6450 50  0000 C CNN
F 2 "" V 4330 6450 50  0001 C CNN
F 3 "~" H 4400 6450 50  0001 C CNN
	1    4400 6450
	0    1    1    0   
$EndComp
$Comp
L Device:R R13
U 1 1 5C15D33C
P 4400 6850
F 0 "R13" V 4193 6850 50  0000 C CNN
F 1 "R" V 4284 6850 50  0000 C CNN
F 2 "" V 4330 6850 50  0001 C CNN
F 3 "~" H 4400 6850 50  0001 C CNN
	1    4400 6850
	0    1    1    0   
$EndComp
$Comp
L Device:R R14
U 1 1 5C15D39A
P 4400 7250
F 0 "R14" V 4193 7250 50  0000 C CNN
F 1 "R" V 4284 7250 50  0000 C CNN
F 2 "" V 4330 7250 50  0001 C CNN
F 3 "~" H 4400 7250 50  0001 C CNN
	1    4400 7250
	0    1    1    0   
$EndComp
Wire Wire Line
	4050 6050 4250 6050
Wire Wire Line
	4050 6450 4250 6450
Wire Wire Line
	4250 6850 4050 6850
Wire Wire Line
	4050 7250 4250 7250
Wire Wire Line
	3750 7250 3400 7250
Wire Wire Line
	3400 7250 3400 6850
Wire Wire Line
	3750 6050 3400 6050
Connection ~ 3400 6050
Wire Wire Line
	3400 6050 3400 5750
Wire Wire Line
	3400 6450 3750 6450
Connection ~ 3400 6450
Wire Wire Line
	3400 6450 3400 6050
Wire Wire Line
	3750 6850 3400 6850
Connection ~ 3400 6850
Wire Wire Line
	3400 6850 3400 6450
$Comp
L power:+3.3V #PWR?
U 1 1 5C16D86A
P 3400 5750
AR Path="/5C0D7C62/5C16D86A" Ref="#PWR?"  Part="1" 
AR Path="/5C16D86A" Ref="#PWR0113"  Part="1" 
F 0 "#PWR0113" H 3400 5600 50  0001 C CNN
F 1 "+3.3V" H 3415 5923 50  0000 C CNN
F 2 "" H 3400 5750 50  0001 C CNN
F 3 "" H 3400 5750 50  0001 C CNN
	1    3400 5750
	1    0    0    -1  
$EndComp
Wire Wire Line
	4550 6050 4900 6050
Wire Wire Line
	4550 6450 4900 6450
Wire Wire Line
	4550 6850 4900 6850
Wire Wire Line
	4550 7250 4900 7250
Wire Wire Line
	5100 4050 5200 4050
Wire Wire Line
	5100 4650 5200 4650
Wire Wire Line
	5100 4450 5700 4450
Wire Wire Line
	5700 4550 5100 4550
Wire Wire Line
	5700 4750 5100 4750
Wire Wire Line
	5700 4850 5100 4850
Text Label 5700 4450 2    50   ~ 0
Touch_0
Text Label 5700 4550 2    50   ~ 0
Touch_1
Text Label 5700 4750 2    50   ~ 0
Touch_2
Text Label 5700 4850 2    50   ~ 0
Touch_3
Text Label 8900 4250 2    50   ~ 0
Touch_0
Text Label 8900 4350 2    50   ~ 0
Touch_1
Text Label 8900 4450 2    50   ~ 0
Touch_2
Text Label 8900 4550 2    50   ~ 0
Touch_3
Text Label 4900 6050 2    50   ~ 0
LED_0
Text Label 4900 6450 2    50   ~ 0
LED_1
Text Label 4900 6850 2    50   ~ 0
LED_2
Text Label 4900 7250 2    50   ~ 0
LED_3
Text Label 8900 3350 2    50   ~ 0
LED_0
Text Label 8900 3450 2    50   ~ 0
LED_1
Text Label 8900 3550 2    50   ~ 0
LED_2
Text Label 8900 3650 2    50   ~ 0
LED_3
Wire Wire Line
	8900 3350 8500 3350
Wire Wire Line
	8500 3450 8900 3450
Wire Wire Line
	8900 3550 8500 3550
Wire Wire Line
	8500 3650 8900 3650
Wire Wire Line
	8900 4250 8500 4250
Wire Wire Line
	8500 4350 8900 4350
Wire Wire Line
	8900 4450 8500 4450
Wire Wire Line
	8900 4550 8500 4550
$Comp
L power:+3.3V #PWR?
U 1 1 5C19EB77
P 7350 2200
AR Path="/5C0D7C62/5C19EB77" Ref="#PWR?"  Part="1" 
AR Path="/5C19EB77" Ref="#PWR0114"  Part="1" 
F 0 "#PWR0114" H 7350 2050 50  0001 C CNN
F 1 "+3.3V" H 7365 2373 50  0000 C CNN
F 2 "" H 7350 2200 50  0001 C CNN
F 3 "" H 7350 2200 50  0001 C CNN
	1    7350 2200
	1    0    0    -1  
$EndComp
$Comp
L Device:C C6
U 1 1 5C19EC6D
P 7350 2400
AR Path="/5C19EC6D" Ref="C6"  Part="1" 
AR Path="/5C0D7C62/5C19EC6D" Ref="C?"  Part="1" 
F 0 "C6" H 7465 2446 50  0000 L CNN
F 1 "100nF" H 7465 2355 50  0000 L CNN
F 2 "" H 7388 2250 50  0001 C CNN
F 3 "~" H 7350 2400 50  0001 C CNN
	1    7350 2400
	1    0    0    -1  
$EndComp
$Comp
L power:GND #PWR?
U 1 1 5C19ED03
P 7350 2600
AR Path="/5C0D7C62/5C19ED03" Ref="#PWR?"  Part="1" 
AR Path="/5C19ED03" Ref="#PWR0115"  Part="1" 
F 0 "#PWR0115" H 7350 2350 50  0001 C CNN
F 1 "GND" H 7355 2427 50  0000 C CNN
F 2 "" H 7350 2600 50  0001 C CNN
F 3 "" H 7350 2600 50  0001 C CNN
	1    7350 2600
	1    0    0    -1  
$EndComp
Wire Wire Line
	7350 2200 7350 2250
Wire Wire Line
	7350 2550 7350 2600
$Comp
L power:+3.3V #PWR?
U 1 1 5C1AB1EE
P 3850 3300
AR Path="/5C0D7C62/5C1AB1EE" Ref="#PWR?"  Part="1" 
AR Path="/5C1AB1EE" Ref="#PWR0116"  Part="1" 
F 0 "#PWR0116" H 3850 3150 50  0001 C CNN
F 1 "+3.3V" H 3865 3473 50  0000 C CNN
F 2 "" H 3850 3300 50  0001 C CNN
F 3 "" H 3850 3300 50  0001 C CNN
	1    3850 3300
	1    0    0    -1  
$EndComp
$Comp
L Device:C C3
U 1 1 5C1AB1F4
P 3850 3500
AR Path="/5C1AB1F4" Ref="C3"  Part="1" 
AR Path="/5C0D7C62/5C1AB1F4" Ref="C?"  Part="1" 
F 0 "C3" H 3965 3546 50  0000 L CNN
F 1 "100nF" H 3965 3455 50  0000 L CNN
F 2 "" H 3888 3350 50  0001 C CNN
F 3 "~" H 3850 3500 50  0001 C CNN
	1    3850 3500
	1    0    0    -1  
$EndComp
$Comp
L power:GND #PWR?
U 1 1 5C1AB1FB
P 3850 3700
AR Path="/5C0D7C62/5C1AB1FB" Ref="#PWR?"  Part="1" 
AR Path="/5C1AB1FB" Ref="#PWR0117"  Part="1" 
F 0 "#PWR0117" H 3850 3450 50  0001 C CNN
F 1 "GND" H 3855 3527 50  0000 C CNN
F 2 "" H 3850 3700 50  0001 C CNN
F 3 "" H 3850 3700 50  0001 C CNN
	1    3850 3700
	1    0    0    -1  
$EndComp
Wire Wire Line
	3850 3300 3850 3350
Wire Wire Line
	3850 3650 3850 3700
$Comp
L Device:R R15
U 1 1 5C1B24CF
P 7100 3100
F 0 "R15" H 7170 3146 50  0000 L CNN
F 1 "10k" H 7170 3055 50  0000 L CNN
F 2 "" V 7030 3100 50  0001 C CNN
F 3 "~" H 7100 3100 50  0001 C CNN
	1    7100 3100
	1    0    0    -1  
$EndComp
Wire Wire Line
	7100 2950 7900 2950
Connection ~ 7900 2950
Wire Wire Line
	7900 2950 7900 3050
Wire Wire Line
	7100 3250 7100 3350
Connection ~ 7100 3350
Wire Wire Line
	7100 3350 7300 3350
$Comp
L power:+3.3V #PWR?
U 1 1 5C1C05E1
P 9800 900
AR Path="/5C0D7C62/5C1C05E1" Ref="#PWR?"  Part="1" 
AR Path="/5C1C05E1" Ref="#PWR0118"  Part="1" 
F 0 "#PWR0118" H 9800 750 50  0001 C CNN
F 1 "+3.3V" H 9815 1073 50  0000 C CNN
F 2 "" H 9800 900 50  0001 C CNN
F 3 "" H 9800 900 50  0001 C CNN
	1    9800 900 
	1    0    0    -1  
$EndComp
Wire Wire Line
	9800 900  9800 1000
$Comp
L power:GND #PWR?
U 1 1 5C1C3B36
P 9800 2000
AR Path="/5C0D7C62/5C1C3B36" Ref="#PWR?"  Part="1" 
AR Path="/5C1C3B36" Ref="#PWR0119"  Part="1" 
F 0 "#PWR0119" H 9800 1750 50  0001 C CNN
F 1 "GND" H 9805 1827 50  0000 C CNN
F 2 "" H 9800 2000 50  0001 C CNN
F 3 "" H 9800 2000 50  0001 C CNN
	1    9800 2000
	1    0    0    -1  
$EndComp
Wire Wire Line
	9800 1900 9800 2000
Text Notes 2900 4250 0    50   ~ 0
MTPM/MTSA anschluss definieren
Text Notes 2150 2050 0    50   ~ 0
EN-Pin definieren und Power\nkonzept überlegen
Text Notes 1650 3200 0    50   ~ 0
R1+R3+R5+R7 anpassen\n
Text Notes 4200 5700 0    50   ~ 0
R11+R12+R13+R14 definieren\n
Text Notes 9050 4250 1    50   ~ 0
Pins definieren
$EndSCHEMATC
