(module SKRBAAE010 (layer F.Cu) (tedit 5CA78380)
  (fp_text reference REF** (at -2.3 -6.8) (layer F.SilkS)
    (effects (font (size 1 1) (thickness 0.15)))
  )
  (fp_text value SKRBAAE010 (at -0.25 -4.6) (layer F.Fab)
    (effects (font (size 1 1) (thickness 0.15)))
  )
  (fp_line (start -2.6 -2.6) (end 2.6 -2.6) (layer F.SilkS) (width 0.15))
  (fp_line (start 2.6 -2.6) (end 2.6 2.6) (layer F.SilkS) (width 0.15))
  (fp_line (start 2.6 2.6) (end -2.6 2.6) (layer F.SilkS) (width 0.15))
  (fp_line (start -2.6 2.6) (end -2.6 -2.6) (layer F.SilkS) (width 0.15))
  (fp_line (start -3 -2.05) (end -3.4 -2.4) (layer F.SilkS) (width 0.15))
  (fp_line (start -3.4 -2.4) (end -3.4 -1.7) (layer F.SilkS) (width 0.15))
  (fp_line (start -3.4 -1.7) (end -3 -2.05) (layer F.SilkS) (width 0.15))
  (pad 1 smd rect (at -1.925 -1.95) (size 1 1) (layers F.Cu F.Paste F.Mask))
  (pad 2 smd rect (at -1.925 1.95 90) (size 1 1) (layers F.Cu F.Paste F.Mask))
  (pad 4 smd rect (at 1.925 1.95 180) (size 1 1) (layers F.Cu F.Paste F.Mask))
  (pad 3 smd rect (at 1.925 -1.95 270) (size 1 1) (layers F.Cu F.Paste F.Mask))
)
