EESchema Schematic File Version 4
LIBS:button-cache
EELAYER 26 0
EELAYER END
$Descr A4 11693 8268
encoding utf-8
Sheet 1 1
Title ""
Date "2018-12-17"
Rev ""
Comp ""
Comment1 ""
Comment2 ""
Comment3 ""
Comment4 ""
$EndDescr
$Comp
L MCU_Microchip_ATtiny:ATtiny2313-20SU U2
U 1 1 5C0D6CA1
P 7900 4150
F 0 "U2" H 7450 5200 50  0000 C CNN
F 1 "ATtiny2313-20SU" V 7350 3500 50  0000 C CNN
F 2 "Package_SO:SOIC-20W_7.5x12.8mm_P1.27mm" H 7900 4150 50  0001 C CIN
F 3 "" H 7900 4150 50  0001 C CNN
	1    7900 4150
	1    0    0    -1  
$EndComp
$Comp
L Regulator_Switching:MCP1640CH U1
U 1 1 5C13AC5E
P 2850 1650
AR Path="/5C13AC5E" Ref="U1"  Part="1" 
AR Path="/5C0D7C62/5C13AC5E" Ref="U?"  Part="1" 
F 0 "U1" H 2850 2117 50  0000 C CNN
F 1 "MCP1640CH" H 2850 2026 50  0000 C CNN
F 2 "Package_TO_SOT_SMD:SOT-23-6" H 2900 1400 50  0001 L CIN
F 3 "" H 2600 2100 50  0001 C CNN
	1    2850 1650
	1    0    0    -1  
$EndComp
$Comp
L Device:C C3
U 1 1 5C13AC6C
P 4000 1700
AR Path="/5C13AC6C" Ref="C3"  Part="1" 
AR Path="/5C0D7C62/5C13AC6C" Ref="C?"  Part="1" 
F 0 "C3" H 4115 1746 50  0000 L CNN
F 1 "10uF" H 4115 1655 50  0000 L CNN
F 2 "Capacitor_SMD:C_0603_1608Metric_Pad1.05x0.95mm_HandSolder" H 4038 1550 50  0001 C CNN
F 3 "" H 4000 1700 50  0001 C CNN
	1    4000 1700
	1    0    0    -1  
$EndComp
$Comp
L Device:L L1
U 1 1 5C13AC73
P 2800 1050
AR Path="/5C13AC73" Ref="L1"  Part="1" 
AR Path="/5C0D7C62/5C13AC73" Ref="L?"  Part="1" 
F 0 "L1" V 2990 1050 50  0000 C CNN
F 1 "4.7uH" V 2900 1050 50  0000 C CNN
F 2 "Inductor_SMD:L_0805_2012Metric" H 2800 1050 50  0001 C CNN
F 3 "" H 2800 1050 50  0001 C CNN
	1    2800 1050
	0    -1   -1   0   
$EndComp
$Comp
L Device:R R1
U 1 1 5C13AC7A
P 3550 1700
AR Path="/5C13AC7A" Ref="R1"  Part="1" 
AR Path="/5C0D7C62/5C13AC7A" Ref="R?"  Part="1" 
F 0 "R1" H 3620 1746 50  0000 L CNN
F 1 "976k" H 3620 1655 50  0000 L CNN
F 2 "" V 3480 1700 50  0001 C CNN
F 3 "" H 3550 1700 50  0001 C CNN
	1    3550 1700
	1    0    0    -1  
$EndComp
$Comp
L Device:R R2
U 1 1 5C13AC81
P 3550 2100
AR Path="/5C13AC81" Ref="R2"  Part="1" 
AR Path="/5C0D7C62/5C13AC81" Ref="R?"  Part="1" 
F 0 "R2" H 3620 2146 50  0000 L CNN
F 1 "562k" H 3620 2055 50  0000 L CNN
F 2 "" V 3480 2100 50  0001 C CNN
F 3 "" H 3550 2100 50  0001 C CNN
	1    3550 2100
	1    0    0    -1  
$EndComp
$Comp
L Device:Battery_Cell BT1
U 1 1 5C13AC88
P 1250 1700
AR Path="/5C13AC88" Ref="BT1"  Part="1" 
AR Path="/5C0D7C62/5C13AC88" Ref="BT?"  Part="1" 
F 0 "BT1" H 600 1750 50  0000 L CNN
F 1 "Battery_Cell" H 600 1700 50  0000 L CNN
F 2 "Cell_Coin_Holders:Keystone_3002_CR2032_SMT" V 1250 1760 50  0001 C CNN
F 3 "" V 1250 1760 50  0001 C CNN
	1    1250 1700
	1    0    0    -1  
$EndComp
$Comp
L power:GND #PWR?
U 1 1 5C13AC8F
P 4200 1950
AR Path="/5C0D7C62/5C13AC8F" Ref="#PWR?"  Part="1" 
AR Path="/5C13AC8F" Ref="#PWR07"  Part="1" 
F 0 "#PWR07" H 4200 1700 50  0001 C CNN
F 1 "GND" H 4205 1777 50  0000 C CNN
F 2 "" H 4200 1950 50  0001 C CNN
F 3 "" H 4200 1950 50  0001 C CNN
	1    4200 1950
	1    0    0    -1  
$EndComp
$Comp
L power:GND #PWR?
U 1 1 5C13ACAD
P 3550 2300
AR Path="/5C0D7C62/5C13ACAD" Ref="#PWR?"  Part="1" 
AR Path="/5C13ACAD" Ref="#PWR05"  Part="1" 
F 0 "#PWR05" H 3550 2050 50  0001 C CNN
F 1 "GND" H 3555 2127 50  0000 C CNN
F 2 "" H 3550 2300 50  0001 C CNN
F 3 "" H 3550 2300 50  0001 C CNN
	1    3550 2300
	1    0    0    -1  
$EndComp
$Comp
L power:GND #PWR?
U 1 1 5C13ACB3
P 1550 1950
AR Path="/5C0D7C62/5C13ACB3" Ref="#PWR?"  Part="1" 
AR Path="/5C13ACB3" Ref="#PWR02"  Part="1" 
F 0 "#PWR02" H 1550 1700 50  0001 C CNN
F 1 "GND" H 1555 1777 50  0000 C CNN
F 2 "" H 1550 1950 50  0001 C CNN
F 3 "" H 1550 1950 50  0001 C CNN
	1    1550 1950
	1    0    0    -1  
$EndComp
$Comp
L power:GND #PWR?
U 1 1 5C13ACB9
P 2850 2100
AR Path="/5C0D7C62/5C13ACB9" Ref="#PWR?"  Part="1" 
AR Path="/5C13ACB9" Ref="#PWR04"  Part="1" 
F 0 "#PWR04" H 2850 1850 50  0001 C CNN
F 1 "GND" H 2855 1927 50  0000 C CNN
F 2 "" H 2850 2100 50  0001 C CNN
F 3 "" H 2850 2100 50  0001 C CNN
	1    2850 2100
	1    0    0    -1  
$EndComp
$Comp
L power:GND #PWR?
U 1 1 5C13ACBF
P 1250 1950
AR Path="/5C0D7C62/5C13ACBF" Ref="#PWR?"  Part="1" 
AR Path="/5C13ACBF" Ref="#PWR01"  Part="1" 
F 0 "#PWR01" H 1250 1700 50  0001 C CNN
F 1 "GND" H 1255 1777 50  0000 C CNN
F 2 "" H 1250 1950 50  0001 C CNN
F 3 "" H 1250 1950 50  0001 C CNN
	1    1250 1950
	1    0    0    -1  
$EndComp
Wire Wire Line
	1250 1950 1250 1800
Wire Wire Line
	1550 1800 1550 1900
Wire Wire Line
	3550 2250 3550 2300
$Comp
L power:+3.3V #PWR?
U 1 1 5C13ACCA
P 4850 1300
AR Path="/5C0D7C62/5C13ACCA" Ref="#PWR?"  Part="1" 
AR Path="/5C13ACCA" Ref="#PWR09"  Part="1" 
F 0 "#PWR09" H 4850 1150 50  0001 C CNN
F 1 "+3.3V" H 4865 1473 50  0000 C CNN
F 2 "" H 4850 1300 50  0001 C CNN
F 3 "" H 4850 1300 50  0001 C CNN
	1    4850 1300
	1    0    0    -1  
$EndComp
$Comp
L Device:C C1
U 1 1 5C13AC65
P 1550 1650
AR Path="/5C13AC65" Ref="C1"  Part="1" 
AR Path="/5C0D7C62/5C13AC65" Ref="C?"  Part="1" 
F 0 "C1" H 1665 1696 50  0000 L CNN
F 1 "4.7uF" H 1665 1605 50  0000 L CNN
F 2 "Capacitor_SMD:C_0603_1608Metric" H 1588 1500 50  0001 C CNN
F 3 "" H 1550 1650 50  0001 C CNN
	1    1550 1650
	1    0    0    -1  
$EndComp
Wire Wire Line
	3550 1850 3550 1900
$Comp
L Device:C C2
U 1 1 5C13BFF8
P 2000 1650
AR Path="/5C13BFF8" Ref="C2"  Part="1" 
AR Path="/5C0D7C62/5C13BFF8" Ref="C?"  Part="1" 
F 0 "C2" H 2115 1696 50  0000 L CNN
F 1 "100nF" H 2115 1605 50  0000 L CNN
F 2 "Capacitor_SMD:C_0402_1005Metric" H 2038 1500 50  0001 C CNN
F 3 "" H 2000 1650 50  0001 C CNN
	1    2000 1650
	1    0    0    -1  
$EndComp
$Comp
L Device:C C4
U 1 1 5C13C412
P 4400 1700
AR Path="/5C13C412" Ref="C4"  Part="1" 
AR Path="/5C0D7C62/5C13C412" Ref="C?"  Part="1" 
F 0 "C4" H 4515 1746 50  0000 L CNN
F 1 "100nF" H 4515 1655 50  0000 L CNN
F 2 "Capacitor_SMD:C_0402_1005Metric" H 4438 1550 50  0001 C CNN
F 3 "" H 4400 1700 50  0001 C CNN
	1    4400 1700
	1    0    0    -1  
$EndComp
Wire Wire Line
	2000 1800 2000 1900
Wire Wire Line
	2000 1900 1550 1900
Connection ~ 1550 1900
Wire Wire Line
	1550 1900 1550 1950
Wire Wire Line
	1250 1500 1250 1450
Wire Wire Line
	1250 1450 1550 1450
Wire Wire Line
	1550 1500 1550 1450
Connection ~ 1550 1450
Wire Wire Line
	1550 1450 2000 1450
Wire Wire Line
	2000 1450 2000 1500
Connection ~ 2000 1450
Wire Wire Line
	2000 1450 2300 1450
Wire Wire Line
	2300 1450 2300 1050
Wire Wire Line
	2300 1050 2650 1050
Connection ~ 2300 1450
Wire Wire Line
	2300 1450 2450 1450
Wire Wire Line
	3400 1050 3400 1450
Wire Wire Line
	3400 1450 3250 1450
Wire Wire Line
	2950 1050 3400 1050
Wire Wire Line
	3250 1550 3550 1550
Wire Wire Line
	3550 1900 3350 1900
Wire Wire Line
	3350 1900 3350 1750
Wire Wire Line
	3350 1750 3250 1750
Connection ~ 3550 1900
Wire Wire Line
	3550 1900 3550 1950
Wire Wire Line
	2850 1950 2850 2100
Wire Wire Line
	3550 1550 4000 1550
Wire Wire Line
	4850 1300 4850 1550
Connection ~ 3550 1550
Connection ~ 4000 1550
Wire Wire Line
	4000 1550 4400 1550
Connection ~ 4400 1550
$Comp
L power:GND #PWR?
U 1 1 5C13D436
P 4350 1100
AR Path="/5C0D7C62/5C13D436" Ref="#PWR?"  Part="1" 
AR Path="/5C13D436" Ref="#PWR08"  Part="1" 
F 0 "#PWR08" H 4350 850 50  0001 C CNN
F 1 "GND" H 4355 927 50  0000 C CNN
F 2 "" H 4350 1100 50  0001 C CNN
F 3 "" H 4350 1100 50  0001 C CNN
	1    4350 1100
	1    0    0    -1  
$EndComp
$Comp
L power:PWR_FLAG #FLG02
U 1 1 5C13D457
P 4350 1000
F 0 "#FLG02" H 4350 1075 50  0001 C CNN
F 1 "PWR_FLAG" H 4350 1174 50  0000 C CNN
F 2 "" H 4350 1000 50  0001 C CNN
F 3 "" H 4350 1000 50  0001 C CNN
	1    4350 1000
	1    0    0    -1  
$EndComp
Wire Wire Line
	4000 1850 4000 1900
Wire Wire Line
	4000 1900 4200 1900
Wire Wire Line
	4400 1900 4400 1850
Wire Wire Line
	4200 1900 4200 1950
Connection ~ 4200 1900
Wire Wire Line
	4200 1900 4400 1900
Wire Wire Line
	4350 1100 4350 1000
$Comp
L Connector:AVR-ISP-6 J1
U 1 1 5C1457A1
P 9900 1500
F 0 "J1" H 9620 1596 50  0000 R CNN
F 1 "AVR-ISP-6" H 9620 1505 50  0000 R CNN
F 2 "" V 9650 1550 50  0001 C CNN
F 3 "" H 8625 950 50  0001 C CNN
	1    9900 1500
	1    0    0    -1  
$EndComp
Wire Wire Line
	10300 1300 10800 1300
Wire Wire Line
	10300 1400 10800 1400
Wire Wire Line
	10800 1500 10300 1500
Wire Wire Line
	10300 1600 10800 1600
Text Label 10800 1300 2    50   ~ 0
MISO
Text Label 10800 1400 2    50   ~ 0
MOSI
Text Label 10800 1500 2    50   ~ 0
SCK
Text Label 10800 1600 2    50   ~ 0
RESET
Text Label 7000 3350 2    50   ~ 0
RESET
Wire Wire Line
	7000 3350 7100 3350
Text Label 8900 4050 2    50   ~ 0
SCK
Wire Wire Line
	8500 4050 8900 4050
Text Label 8900 3850 2    50   ~ 0
MOSI
Text Label 8900 3950 2    50   ~ 0
MISO
Wire Wire Line
	8900 3950 8500 3950
Wire Wire Line
	8500 3850 8900 3850
$Comp
L power:+3.3V #PWR?
U 1 1 5C158E35
P 7900 2900
AR Path="/5C0D7C62/5C158E35" Ref="#PWR?"  Part="1" 
AR Path="/5C158E35" Ref="#PWR013"  Part="1" 
F 0 "#PWR013" H 7900 2750 50  0001 C CNN
F 1 "+3.3V" H 7915 3073 50  0000 C CNN
F 2 "" H 7900 2900 50  0001 C CNN
F 3 "" H 7900 2900 50  0001 C CNN
	1    7900 2900
	1    0    0    -1  
$EndComp
Wire Wire Line
	7900 2900 7900 2950
$Comp
L power:GND #PWR?
U 1 1 5C15A8A7
P 7900 5350
AR Path="/5C0D7C62/5C15A8A7" Ref="#PWR?"  Part="1" 
AR Path="/5C15A8A7" Ref="#PWR014"  Part="1" 
F 0 "#PWR014" H 7900 5100 50  0001 C CNN
F 1 "GND" H 7905 5177 50  0000 C CNN
F 2 "" H 7900 5350 50  0001 C CNN
F 3 "" H 7900 5350 50  0001 C CNN
	1    7900 5350
	1    0    0    -1  
$EndComp
Wire Wire Line
	7900 5350 7900 5250
$Comp
L Device:LED D_r1
U 1 1 5C15CEDF
P 5350 4050
F 0 "D_r1" H 5342 3795 50  0000 C CNN
F 1 "LED" H 5342 3886 50  0000 C CNN
F 2 "" H 5350 4050 50  0001 C CNN
F 3 "" H 5350 4050 50  0001 C CNN
	1    5350 4050
	-1   0    0    1   
$EndComp
$Comp
L Device:LED D_g1
U 1 1 5C15D000
P 5350 4450
F 0 "D_g1" H 5342 4195 50  0000 C CNN
F 1 "LED" H 5342 4286 50  0000 C CNN
F 2 "" H 5350 4450 50  0001 C CNN
F 3 "" H 5350 4450 50  0001 C CNN
	1    5350 4450
	-1   0    0    1   
$EndComp
$Comp
L Device:LED D_y1
U 1 1 5C15D04E
P 5350 4850
F 0 "D_y1" H 5342 4595 50  0000 C CNN
F 1 "LED" H 5342 4686 50  0000 C CNN
F 2 "" H 5350 4850 50  0001 C CNN
F 3 "" H 5350 4850 50  0001 C CNN
	1    5350 4850
	-1   0    0    1   
$EndComp
$Comp
L Device:LED D_b1
U 1 1 5C15D0A4
P 5350 5250
F 0 "D_b1" H 5342 4995 50  0000 C CNN
F 1 "LED" H 5342 5086 50  0000 C CNN
F 2 "" H 5350 5250 50  0001 C CNN
F 3 "" H 5350 5250 50  0001 C CNN
	1    5350 5250
	-1   0    0    1   
$EndComp
$Comp
L Device:R R3
U 1 1 5C15D1E3
P 4800 4050
F 0 "R3" V 4593 4050 50  0000 C CNN
F 1 "1.5k" V 4684 4050 50  0000 C CNN
F 2 "" V 4730 4050 50  0001 C CNN
F 3 "" H 4800 4050 50  0001 C CNN
	1    4800 4050
	0    1    1    0   
$EndComp
$Comp
L Device:R R4
U 1 1 5C15D2E4
P 4800 4450
F 0 "R4" V 4593 4450 50  0000 C CNN
F 1 "1.4k" V 4684 4450 50  0000 C CNN
F 2 "" V 4730 4450 50  0001 C CNN
F 3 "" H 4800 4450 50  0001 C CNN
	1    4800 4450
	0    1    1    0   
$EndComp
$Comp
L Device:R R5
U 1 1 5C15D33C
P 4800 4850
F 0 "R5" V 4593 4850 50  0000 C CNN
F 1 "1.4k" V 4684 4850 50  0000 C CNN
F 2 "" V 4730 4850 50  0001 C CNN
F 3 "" H 4800 4850 50  0001 C CNN
	1    4800 4850
	0    1    1    0   
$EndComp
$Comp
L Device:R R6
U 1 1 5C15D39A
P 4800 5250
F 0 "R6" V 4593 5250 50  0000 C CNN
F 1 "300" V 4700 5250 50  0000 C CNN
F 2 "" V 4730 5250 50  0001 C CNN
F 3 "" H 4800 5250 50  0001 C CNN
	1    4800 5250
	0    1    1    0   
$EndComp
Text Label 8900 4250 2    50   ~ 0
Touch_r
Text Label 8900 4350 2    50   ~ 0
Touch_g
Text Label 8900 4450 2    50   ~ 0
Touch_y
Text Label 8900 4550 2    50   ~ 0
Touch_b
Text Label 4500 4050 2    50   ~ 0
LED_r
Text Label 4500 4450 2    50   ~ 0
LED_g
Text Label 4500 4850 2    50   ~ 0
LED_y
Text Label 4500 5250 2    50   ~ 0
LED_b
Text Label 8900 3350 2    50   ~ 0
LED_r
Text Label 8900 3450 2    50   ~ 0
LED_g
Text Label 8900 3550 2    50   ~ 0
LED_y
Text Label 8900 3650 2    50   ~ 0
LED_b
Wire Wire Line
	8900 3350 8500 3350
Wire Wire Line
	8500 3450 8900 3450
Wire Wire Line
	8900 3550 8500 3550
Wire Wire Line
	8500 3650 8900 3650
Wire Wire Line
	8900 4250 8500 4250
Wire Wire Line
	8500 4350 8900 4350
Wire Wire Line
	8900 4450 8500 4450
Wire Wire Line
	8900 4550 8500 4550
$Comp
L power:+3.3V #PWR?
U 1 1 5C19EB77
P 7350 2200
AR Path="/5C0D7C62/5C19EB77" Ref="#PWR?"  Part="1" 
AR Path="/5C19EB77" Ref="#PWR011"  Part="1" 
F 0 "#PWR011" H 7350 2050 50  0001 C CNN
F 1 "+3.3V" H 7365 2373 50  0000 C CNN
F 2 "" H 7350 2200 50  0001 C CNN
F 3 "" H 7350 2200 50  0001 C CNN
	1    7350 2200
	1    0    0    -1  
$EndComp
$Comp
L Device:C C5
U 1 1 5C19EC6D
P 7350 2400
AR Path="/5C19EC6D" Ref="C5"  Part="1" 
AR Path="/5C0D7C62/5C19EC6D" Ref="C?"  Part="1" 
F 0 "C5" H 7465 2446 50  0000 L CNN
F 1 "100nF" H 7465 2355 50  0000 L CNN
F 2 "Capacitor_SMD:C_0402_1005Metric" H 7388 2250 50  0001 C CNN
F 3 "" H 7350 2400 50  0001 C CNN
	1    7350 2400
	1    0    0    -1  
$EndComp
$Comp
L power:GND #PWR?
U 1 1 5C19ED03
P 7350 2600
AR Path="/5C0D7C62/5C19ED03" Ref="#PWR?"  Part="1" 
AR Path="/5C19ED03" Ref="#PWR012"  Part="1" 
F 0 "#PWR012" H 7350 2350 50  0001 C CNN
F 1 "GND" H 7355 2427 50  0000 C CNN
F 2 "" H 7350 2600 50  0001 C CNN
F 3 "" H 7350 2600 50  0001 C CNN
	1    7350 2600
	1    0    0    -1  
$EndComp
Wire Wire Line
	7350 2200 7350 2250
Wire Wire Line
	7350 2550 7350 2600
$Comp
L Device:R R7
U 1 1 5C1B24CF
P 7100 3100
F 0 "R7" H 7170 3146 50  0000 L CNN
F 1 "10k" H 7170 3055 50  0000 L CNN
F 2 "" V 7030 3100 50  0001 C CNN
F 3 "" H 7100 3100 50  0001 C CNN
	1    7100 3100
	1    0    0    -1  
$EndComp
Wire Wire Line
	7100 2950 7900 2950
Connection ~ 7900 2950
Wire Wire Line
	7900 2950 7900 3050
Wire Wire Line
	7100 3250 7100 3350
Connection ~ 7100 3350
Wire Wire Line
	7100 3350 7300 3350
$Comp
L power:+3.3V #PWR?
U 1 1 5C1C05E1
P 9800 900
AR Path="/5C0D7C62/5C1C05E1" Ref="#PWR?"  Part="1" 
AR Path="/5C1C05E1" Ref="#PWR015"  Part="1" 
F 0 "#PWR015" H 9800 750 50  0001 C CNN
F 1 "+3.3V" H 9815 1073 50  0000 C CNN
F 2 "" H 9800 900 50  0001 C CNN
F 3 "" H 9800 900 50  0001 C CNN
	1    9800 900 
	1    0    0    -1  
$EndComp
Wire Wire Line
	9800 900  9800 1000
$Comp
L power:GND #PWR?
U 1 1 5C1C3B36
P 9800 2000
AR Path="/5C0D7C62/5C1C3B36" Ref="#PWR?"  Part="1" 
AR Path="/5C1C3B36" Ref="#PWR016"  Part="1" 
F 0 "#PWR016" H 9800 1750 50  0001 C CNN
F 1 "GND" H 9805 1827 50  0000 C CNN
F 2 "" H 9800 2000 50  0001 C CNN
F 3 "" H 9800 2000 50  0001 C CNN
	1    9800 2000
	1    0    0    -1  
$EndComp
Wire Wire Line
	9800 1900 9800 2000
$Comp
L myParts:SW_Push SW_r1
U 1 1 5C15E235
P 1900 3350
F 0 "SW_r1" V 1854 3841 50  0000 L CNN
F 1 "SW_Push" V 1945 3841 50  0000 L CNN
F 2 "" V 1950 3400 50  0001 C CNN
F 3 "" V 1950 3400 50  0001 C CNN
	1    1900 3350
	0    1    1    0   
$EndComp
$Comp
L myParts:SW_Push SW_y1
U 1 1 5C16356D
P 1900 4450
F 0 "SW_y1" V 1854 4941 50  0000 L CNN
F 1 "SW_Push" V 1945 4941 50  0000 L CNN
F 2 "" V 1950 4500 50  0001 C CNN
F 3 "" V 1950 4500 50  0001 C CNN
	1    1900 4450
	0    1    1    0   
$EndComp
$Comp
L myParts:SW_Push SW_g1
U 1 1 5C164CF8
P 1900 3900
F 0 "SW_g1" V 1854 4391 50  0000 L CNN
F 1 "SW_Push" V 1945 4391 50  0000 L CNN
F 2 "" V 1950 3950 50  0001 C CNN
F 3 "" V 1950 3950 50  0001 C CNN
	1    1900 3900
	0    1    1    0   
$EndComp
$Comp
L myParts:SW_Push SW_b1
U 1 1 5C164DD6
P 1900 5000
F 0 "SW_b1" V 1854 5491 50  0000 L CNN
F 1 "SW_Push" V 1945 5491 50  0000 L CNN
F 2 "" V 1950 5050 50  0001 C CNN
F 3 "" V 1950 5050 50  0001 C CNN
	1    1900 5000
	0    1    1    0   
$EndComp
$Comp
L myParts:SW_Push SW5
U 1 1 5C164E38
P 1900 5550
F 0 "SW5" V 1854 6041 50  0000 L CNN
F 1 "SW_Push" V 1945 6041 50  0000 L CNN
F 2 "" V 1950 5600 50  0001 C CNN
F 3 "" V 1950 5600 50  0001 C CNN
	1    1900 5550
	0    1    1    0   
$EndComp
Wire Wire Line
	1950 3550 1800 3550
Wire Wire Line
	1800 3550 1800 3700
Wire Wire Line
	1800 3700 1950 3700
Wire Wire Line
	1800 3700 1800 4100
Wire Wire Line
	1800 4100 1950 4100
Connection ~ 1800 3700
Wire Wire Line
	1800 4100 1800 4250
Connection ~ 1800 4100
Wire Wire Line
	1950 4250 1800 4250
Wire Wire Line
	1800 4250 1800 4650
Wire Wire Line
	1800 4650 1950 4650
Connection ~ 1800 4250
Wire Wire Line
	1800 4650 1800 4800
Wire Wire Line
	1800 4800 1950 4800
Connection ~ 1800 4650
Wire Wire Line
	1800 4800 1800 5200
Wire Wire Line
	1800 5200 1950 5200
Connection ~ 1800 4800
Wire Wire Line
	1800 5200 1800 5350
Wire Wire Line
	1800 5350 1950 5350
Connection ~ 1800 5200
Wire Wire Line
	1800 5350 1800 5750
Wire Wire Line
	1800 5750 1950 5750
Connection ~ 1800 5350
Wire Wire Line
	1800 5750 1800 5950
Connection ~ 1800 5750
$Comp
L power:GND #PWR03
U 1 1 5C196517
P 1800 5950
F 0 "#PWR03" H 1800 5700 50  0001 C CNN
F 1 "GND" H 1805 5777 50  0000 C CNN
F 2 "" H 1800 5950 50  0001 C CNN
F 3 "" H 1800 5950 50  0001 C CNN
	1    1800 5950
	1    0    0    -1  
$EndComp
Text Label 9050 4650 2    50   ~ 0
Touch_Start
Wire Wire Line
	8500 4650 9050 4650
Text Label 3200 3350 2    50   ~ 0
Touch_r
Text Label 3200 3900 2    50   ~ 0
Touch_g
Text Label 3200 4450 2    50   ~ 0
Touch_y
Text Label 3200 5000 2    50   ~ 0
Touch_b
Wire Wire Line
	3200 3350 2800 3350
Wire Wire Line
	2800 3900 3200 3900
Wire Wire Line
	3200 4450 2800 4450
Wire Wire Line
	3200 5000 2800 5000
Text Label 3350 5550 2    50   ~ 0
Touch_Start
Wire Wire Line
	2800 5550 3350 5550
Wire Wire Line
	2800 5550 2800 5350
Wire Wire Line
	2800 5350 2350 5350
Wire Wire Line
	2350 5750 2800 5750
Wire Wire Line
	2800 5750 2800 5550
Connection ~ 2800 5550
Wire Wire Line
	2800 5000 2800 5200
Wire Wire Line
	2800 5200 2350 5200
Wire Wire Line
	2350 4800 2800 4800
Wire Wire Line
	2800 4800 2800 5000
Connection ~ 2800 5000
Wire Wire Line
	2800 4250 2350 4250
Wire Wire Line
	2350 4650 2800 4650
Wire Wire Line
	2800 4250 2800 4450
Connection ~ 2800 4450
Wire Wire Line
	2800 4450 2800 4650
Wire Wire Line
	2800 3900 2800 4100
Wire Wire Line
	2800 4100 2350 4100
Wire Wire Line
	2350 3700 2800 3700
Wire Wire Line
	2800 3700 2800 3900
Connection ~ 2800 3900
Wire Wire Line
	2800 3350 2800 3550
Wire Wire Line
	2800 3550 2350 3550
Wire Wire Line
	2350 3150 2800 3150
Wire Wire Line
	2800 3150 2800 3350
Connection ~ 2800 3350
Wire Wire Line
	1950 3150 1800 3150
Wire Wire Line
	1800 3150 1800 3550
Connection ~ 1800 3550
Wire Wire Line
	4500 4050 4650 4050
Wire Wire Line
	4500 4450 4650 4450
Wire Wire Line
	4500 4850 4650 4850
Wire Wire Line
	4500 5250 4650 5250
Wire Wire Line
	4950 4050 5200 4050
Wire Wire Line
	4950 4450 5200 4450
Wire Wire Line
	4950 4850 5200 4850
Wire Wire Line
	4950 5250 5200 5250
Wire Wire Line
	5500 4050 5850 4050
Wire Wire Line
	5850 4050 5850 4450
Wire Wire Line
	5500 4450 5850 4450
Connection ~ 5850 4450
Wire Wire Line
	5500 4850 5850 4850
Wire Wire Line
	5850 4450 5850 4850
Connection ~ 5850 4850
Wire Wire Line
	5850 4850 5850 5250
Wire Wire Line
	5500 5250 5850 5250
Connection ~ 5850 5250
Wire Wire Line
	5850 5250 5850 5500
$Comp
L power:GND #PWR?
U 1 1 5C1ACA3E
P 5850 5500
AR Path="/5C0D7C62/5C1ACA3E" Ref="#PWR?"  Part="1" 
AR Path="/5C1ACA3E" Ref="#PWR010"  Part="1" 
F 0 "#PWR010" H 5850 5250 50  0001 C CNN
F 1 "GND" H 5855 5327 50  0000 C CNN
F 2 "" H 5850 5500 50  0001 C CNN
F 3 "" H 5850 5500 50  0001 C CNN
	1    5850 5500
	1    0    0    -1  
$EndComp
Wire Wire Line
	4400 1550 4850 1550
NoConn ~ 8500 3750
NoConn ~ 7300 3550
NoConn ~ 7300 3750
NoConn ~ 8500 4750
NoConn ~ 8500 4850
Wire Wire Line
	2450 1650 2300 1650
Wire Wire Line
	2300 1650 2300 1450
$EndSCHEMATC
